<?xml version="1.0" encoding="utf-8"?>
<!-- Generator: Adobe Illustrator 23.0.2, SVG Export Plug-In . SVG Version: 6.00 Build 0)  -->
<svg version="1.1" id="Layer_1" xmlns="http://www.w3.org/2000/svg" xmlns:xlink="http://www.w3.org/1999/xlink" x="0px" y="0px"
	 viewBox="0 0 180 180" style="enable-background:new 0 0 180 180;" xml:space="preserve">
<style type="text/css">
	.st0{fill:#FFFFFF;}
	.st1{fill:#030F2B;}
</style>
<path class="st0" d="M90,180L90,180c-49.71,0-90-40.29-90-90v0C0,40.29,40.29,0,90,0h0c49.71,0,90,40.29,90,90v0
	C180,139.71,139.71,180,90,180z"/>
<g>
	<g>
		<path class="st1" d="M47.59,92.79c2.06-2.11,3.21-4.51,2.71-7.61c-0.81-4.95-4.38-8.83-9.68-8.55c-5.3,0.28-8.85,4.27-8.84,9.56
			c0.01,3.31,2.54,5.68,5.22,7.31c-5.48,3.38-8.06,8.35-8.26,14.76c9.48-0.3,18.83-1.13,28.33-1.17
			C56.37,100.27,54.06,95.56,47.59,92.79z"/>
	</g>
	<g>
		<path class="st1" d="M156.82,86.59l-0.51-0.02c-7.05-0.33-14.74-0.44-23.51-0.35l-0.01-1c8.58-0.09,16.13,0.02,23.06,0.33
			c0.06-2.08,0.18-4.17,0.3-6.2c0.13-2.16,0.26-4.39,0.31-6.59c-10.87-0.06-21.75-0.12-32.62-0.16l0-1
			c11.04,0.04,22.09,0.1,33.13,0.16l0.51,0l-0.01,0.51c-0.05,2.39-0.19,4.8-0.33,7.14c-0.13,2.19-0.26,4.45-0.31,6.68L156.82,86.59z
			"/>
		<path class="st1" d="M78.01,87.41c-2.73,0-5.33-0.02-7.84-0.07l-0.49-0.01v-0.49c0-3.01,0.1-6.06,0.19-9
			c0.06-1.98,0.13-3.95,0.16-5.93l0.01-0.49l0.49,0c9.98,0.02,20.72,0.05,30.69,0.08l0,1c-9.81-0.03-20.36-0.06-30.2-0.08
			c-0.04,1.82-0.1,3.63-0.15,5.45c-0.09,2.78-0.18,5.65-0.19,8.48c6.54,0.11,13.67,0.07,22.36-0.13l0.02,1
			C87.49,87.35,82.56,87.41,78.01,87.41z"/>
	</g>
	<g>
		<path class="st1" d="M147.02,111.32l-0.03-1c3.15-0.08,6.29-0.17,9.44-0.29c-0.09-2.5-0.27-5.04-0.44-7.49
			c-0.15-2.12-0.3-4.31-0.4-6.47c-5.3,0.15-10.74,0.27-16.6,0.34l-0.01-1c6.04-0.08,11.63-0.2,17.08-0.36l0.49-0.01l0.02,0.5
			c0.09,2.31,0.26,4.66,0.42,6.94c0.18,2.63,0.38,5.34,0.46,8.03l0.01,0.5l-0.5,0.02C153.66,111.14,150.34,111.24,147.02,111.32z"/>
		<path class="st1" d="M80.55,111.42c-3.49-0.03-6.99-0.06-10.48-0.09l-0.5,0l0-0.5c0.05-5.47,0.12-10.36,0.21-14.96l0.01-0.49h0.49
			c6,0,11.99,0.03,17.97,0.06l0,1c-5.82-0.03-11.65-0.05-17.48-0.06c-0.08,4.31-0.15,8.88-0.2,13.96c3.33,0.02,6.65,0.05,9.98,0.08
			L80.55,111.42z"/>
	</g>
	<g>
		<path class="st1" d="M63.22,111.5l-0.51-0.01c-11.67-0.32-24.24-0.33-38.43-0.01l-0.51,0.01l0-0.51
			c-0.05-11.99-0.58-24.14-1.1-35.9l-0.16-3.65l0.51-0.01c4.42-0.09,8.83-0.2,13.25-0.31c9.1-0.23,18.51-0.47,27.77-0.5l0.51,0
			l-0.01,0.51c-0.13,5.6-0.38,11.28-0.61,16.78c-0.32,7.56-0.66,15.38-0.71,23.09L63.22,111.5z M44.25,110.25
			c6.27,0,12.23,0.08,17.98,0.23c0.07-7.55,0.39-15.21,0.71-22.61c0.23-5.32,0.46-10.83,0.6-16.25c-9.09,0.04-18.31,0.27-27.24,0.5
			c-4.25,0.11-8.5,0.21-12.75,0.3l0.11,2.63c0.51,11.6,1.03,23.58,1.09,35.43C31.6,110.32,38.07,110.25,44.25,110.25z"/>
	</g>
	<g>
		<path class="st1" d="M82.27,117.5c-1.67,0-2.79-0.44-3.35-1.32c-0.61-0.96-0.47-2.32,0.44-4.05c2.15-4.09,4.1-7.92,6-11.62
			c6.92-13.53,12.89-25.22,23.13-39.43c1.18-1.64,2.42-2.51,3.67-2.58c1.05-0.06,2.08,0.45,3.02,1.5
			c9.62,10.7,25.27,36.52,32.88,51.04c0.7,1.33,0.75,2.71,0.13,3.79c-0.64,1.13-1.95,1.8-3.68,1.9
			c-10.33,0.57-21.13,0.49-31.58,0.41c-10-0.08-20.35-0.16-30.13,0.34C82.62,117.5,82.44,117.5,82.27,117.5z M112.32,59.5
			c-0.03,0-0.07,0-0.1,0c-0.94,0.05-1.92,0.78-2.92,2.17l0,0c-10.19,14.14-16.15,25.8-23.05,39.3c-1.89,3.7-3.85,7.53-6,11.63
			c-0.72,1.37-0.89,2.42-0.48,3.05c0.41,0.63,1.44,0.92,2.99,0.85c9.82-0.5,20.18-0.42,30.19-0.35c10.43,0.08,21.22,0.16,31.52-0.4
			c1.4-0.08,2.39-0.56,2.87-1.39c0.44-0.78,0.39-1.81-0.15-2.84C139.6,97.03,124,71.31,114.44,60.67
			C113.74,59.89,113.03,59.5,112.32,59.5z"/>
		<path class="st1" d="M144.89,112.7c-7.33-13.99-23.07-39.96-32.37-50.31c-0.09-0.1-0.16-0.17-0.22-0.22
			c-0.18,0.14-0.49,0.43-0.91,1c-10.08,13.98-15.99,25.56-22.85,38.96c-1.9,3.71-3.86,7.55-6.02,11.66
			c-0.02,0.04-0.04,0.08-0.06,0.12c0.05,0,0.1,0,0.15-0.01c5.42-0.28,11.48-0.41,19.09-0.41c3.73,0,7.49,0.03,11.25,0.06
			c3.75,0.03,7.51,0.06,11.26,0.06c8.15,0,14.35-0.14,20.1-0.46c0.34-0.02,0.57-0.07,0.7-0.12
			C145,112.96,144.96,112.84,144.89,112.7z M115,77.95c0.32,6.57,0.35,13.11,0.33,19.68c-2.53,0.1-5.06,0.21-7.59,0.32
			c-0.67-6.34-1.42-12.63-2.38-18.94C108.58,78.71,111.79,78.33,115,77.95z M115.36,108.37c-0.98,0.72-1.99,0.97-3.18,0.97
			s-2.26-0.26-3.26-0.97c-1-0.71-1.37-1.86-1.37-3.09c-0.01-1.23,0.34-2.47,1.37-3.17c1.03-0.7,2.08-0.93,3.27-0.93
			c1.19,0,2.18,0.23,3.19,0.93c1.01,0.7,1.33,1.95,1.32,3.17C116.68,106.5,116.34,107.66,115.36,108.37z"/>
	</g>
	<g>
		<path class="st1" d="M52.81,83.84l0.74-4.02c0.2-1.09,0.47-2.58,1.47-3.57c0.83-0.82,2.08-1.17,3.18-0.88
			c1.11,0.29,2.03,1.19,2.33,2.31c0.11,0.42,0.2,1.04-0.06,1.67c-0.27,0.67-0.87,1.21-1.71,1.53c-0.43,0.16-0.87,0.25-1.29,0.34
			c-0.21,0.04-0.42,0.09-0.62,0.14h0c-1.07,0.27-2.1,0.81-2.97,1.56L52.81,83.84z M57.41,76.27c-0.61,0-1.23,0.25-1.68,0.69
			c-0.72,0.71-0.96,1.79-1.19,3.04l-0.26,1.4c0.73-0.46,1.52-0.8,2.33-1c0.22-0.06,0.44-0.1,0.67-0.15c0.4-0.08,0.78-0.16,1.14-0.3
			c0.33-0.12,0.92-0.42,1.14-0.96c0.12-0.29,0.12-0.66,0.02-1.04c-0.22-0.78-0.85-1.41-1.62-1.61
			C57.78,76.29,57.6,76.27,57.41,76.27z"/>
		<path class="st1" d="M57.31,88.06c-0.13,0-0.26-0.01-0.39-0.02c-0.54-0.06-1.11-0.22-1.72-0.4l-0.02,0
			c-0.38-0.11-0.75-0.21-1.13-0.3c-0.43-0.1-0.87-0.18-1.32-0.24l-0.86-0.12l0.53-0.69c0.85-1.1,1.79-2.17,2.89-2.52
			c0.9-0.29,1.96-0.06,2.65,0.56c0.61,0.56,0.96,1.48,0.88,2.34c-0.01,0.09-0.02,0.17-0.04,0.26c-0.07,0.36-0.22,0.68-0.4,0.84
			C58.17,87.96,57.78,88.06,57.31,88.06z M55.46,86.68l0.01,0c0.57,0.16,1.11,0.31,1.56,0.36c0.39,0.04,0.64-0.01,0.71-0.04h0
			c-0.02,0,0.03-0.1,0.06-0.27c0.01-0.05,0.02-0.1,0.02-0.15c0.05-0.55-0.17-1.16-0.56-1.51c-0.42-0.38-1.12-0.53-1.67-0.35
			c-0.65,0.21-1.28,0.81-1.88,1.52c0.19,0.04,0.37,0.08,0.56,0.12C54.68,86.46,55.07,86.57,55.46,86.68L55.46,86.68z"/>
	</g>
</g>
</svg>
