<?xml version="1.0" encoding="utf-8"?>
<!-- Generator: Adobe Illustrator 23.0.2, SVG Export Plug-In . SVG Version: 6.00 Build 0)  -->
<svg version="1.1" id="Layer_1" xmlns="http://www.w3.org/2000/svg" xmlns:xlink="http://www.w3.org/1999/xlink" x="0px" y="0px"
	 viewBox="0 0 180 180" style="enable-background:new 0 0 180 180;" xml:space="preserve">
<style type="text/css">
	.st0{fill:#FFFFFF;}
	.st1{fill:#030F2B;}
</style>
<path class="st0" d="M90,180L90,180c-49.71,0-90-40.29-90-90v0C0,40.29,40.29,0,90,0h0c49.71,0,90,40.29,90,90v0
	C180,139.71,139.71,180,90,180z"/>
<g>
	<g>
		<path class="st1" d="M87.34,117.57c-0.87,0-1.77-0.12-2.74-0.34c-2.63-0.61-4.5-1.77-6.23-3.86c-1.64-1.98-2.29-4.87-1.79-7.94
			l0,0c0.44-2.67,1.24-5.58,3.82-6.86c2.53-1.25,4.56-1.17,7.03-0.62c2.74,0.61,4.92,1.76,6.84,3.62c2.63,2.55,2.19,6.54,1.87,8.13
			c-0.67,3.38-2.12,5.65-4.32,6.75C90.31,117.2,88.88,117.57,87.34,117.57z M84.46,98.56c-1.17,0-2.31,0.25-3.62,0.9
			c-2.18,1.08-2.88,3.71-3.28,6.13l0,0c-0.46,2.78,0.11,5.39,1.57,7.14c1.59,1.91,3.29,2.97,5.69,3.53c2.5,0.58,4.39,0.38,6.55-0.7
			c1.91-0.96,3.18-2.99,3.78-6.05c0.28-1.43,0.69-5.01-1.59-7.22c-1.78-1.73-3.81-2.8-6.36-3.36C86.22,98.7,85.33,98.56,84.46,98.56
			z M100.79,98.31l-0.42-0.23c-3.56-1.92-7.06-2.68-10.77-3.48c-1.75-0.38-3.56-0.77-5.42-1.3l-0.51-0.14l0.17-0.5
			c0.2-0.58,0.4-1.29,0.6-1.99c0.25-0.86,0.51-1.76,0.76-2.42c1.26-3.37,2.23-5.6,5.05-8.24c2.84-2.66,7.74-3.82,11.35-4.33
			c0.57-0.08,1.17-0.14,1.8-0.2c2.14-0.21,4.56-0.45,5.87-1.62c1.66-1.48,1.75-3.14,1.88-5.23c0.14-2.42-0.26-4.05-1.35-5.47
			c-0.24-0.31-0.44-0.58-0.62-0.83c-0.83-1.15-1.21-1.67-3.17-2.71c-6.77-3.62-12.52,1.31-17.38,6.21l-0.36,0.36l-0.36-0.37
			c-1.62-1.66-3.36-3.24-5.04-4.77c-2.08-1.89-4.23-3.84-6.16-5.96l-0.35-0.38l0.4-0.34c4.52-3.83,9.54-6.81,14.51-8.62
			c5.54-2.02,12.48-1.65,16.73-0.73c7.96,1.73,13.29,4.34,17.27,8.46c4.64,4.8,5.36,9.49,5.01,15.04
			c-0.28,4.48-1.57,7.68-4.45,11.03c-2.41,2.81-6.71,5.06-12.79,6.69c-2.79,0.75-5.67,1.63-7.41,3.43
			c-1.43,1.47-2.01,2.73-2.75,4.33c-0.18,0.39-0.36,0.79-0.57,1.21l0,0c-0.16,0.32-0.3,0.65-0.44,0.98
			c-0.24,0.57-0.5,1.15-0.83,1.72L100.79,98.31z M84.96,92.47c1.65,0.45,3.28,0.8,4.85,1.15c3.63,0.79,7.06,1.54,10.59,3.35
			c0.2-0.38,0.37-0.78,0.54-1.19c0.15-0.34,0.29-0.68,0.46-1.02h0c0.2-0.42,0.38-0.81,0.56-1.19c0.75-1.62,1.39-3.01,2.94-4.61
			c1.92-1.98,4.94-2.91,7.87-3.7c5.87-1.57,10.01-3.72,12.29-6.37c2.73-3.18,3.95-6.2,4.21-10.45c0.34-5.44-0.33-9.73-4.73-14.29
			c-3.83-3.97-9-6.49-16.76-8.17c-4.12-0.9-10.83-1.25-16.17,0.69c-4.72,1.71-9.48,4.51-13.81,8.11c1.81,1.94,3.8,3.75,5.74,5.51
			c1.57,1.43,3.19,2.9,4.73,4.46c5.04-5.04,11-9.88,18.2-6.03c2.16,1.15,2.64,1.81,3.51,3.01c0.18,0.24,0.37,0.51,0.6,0.81
			c1.58,2.06,1.66,4.35,1.56,6.12c-0.13,2.16-0.24,4.18-2.21,5.93c-1.55,1.38-4.14,1.64-6.44,1.87c-0.61,0.06-1.21,0.12-1.76,0.2
			c-3.46,0.49-8.15,1.59-10.8,4.07c-2.57,2.4-3.48,4.33-4.8,7.86c-0.24,0.63-0.49,1.5-0.73,2.35C85.26,91.47,85.11,92,84.96,92.47z"
			/>
		<path class="st1" d="M87.33,112.82c-0.48,0-1.02-0.07-1.66-0.22c-1.6-0.37-2.59-0.99-3.66-2.27c-0.74-0.89-1.03-2.47-0.76-4.13
			c0.43-2.61,0.97-3.24,1.25-3.38c0.9-0.45,1.46-0.51,1.93-0.51c0.5,0,1.12,0.09,1.95,0.27c1.9,0.42,3.27,1.14,4.57,2.39
			c0.63,0.61,0.84,2.14,0.52,3.8c-0.21,1.05-0.71,2.89-1.78,3.42C88.83,112.63,88.11,112.82,87.33,112.82z M98.53,92.07
			c-2.7-0.98-5.34-1.56-7.92-2.12c-0.3-0.06-0.6-0.13-0.9-0.2c1.13-3.01,1.82-4.44,3.79-6.29c1.49-1.39,4.68-2.52,8.76-3.09
			c0.5-0.07,1.05-0.12,1.6-0.18c2.72-0.27,6.11-0.6,8.57-2.8c3.12-2.79,3.31-6.09,3.45-8.5c0.13-2.25,0.03-5.57-2.33-8.64
			c-0.21-0.27-0.39-0.52-0.55-0.73c-1.16-1.59-2.05-2.65-4.78-4.11c-2.27-1.21-4.62-1.83-6.98-1.83c-4.97,0-9.18,2.63-12.97,5.98
			c-0.75-0.7-1.5-1.37-2.23-2.04c-0.88-0.8-1.74-1.58-2.57-2.36c3.05-2.12,6.24-3.81,9.4-4.96c2.14-0.78,4.84-1.19,7.81-1.19
			c2.16,0,4.39,0.23,6.28,0.64c7.09,1.54,11.53,3.67,14.86,7.12c3.09,3.2,4.02,6.09,3.68,11.44c-0.22,3.44-1.12,5.68-3.32,8.24
			c-1.22,1.42-4.02,3.48-10.41,5.19c-3.29,0.88-7.01,2.04-9.59,4.71c-1.99,2.05-2.83,3.88-3.65,5.64
			C98.55,92.03,98.54,92.05,98.53,92.07z"/>
	</g>
	<g>
		<path class="st1" d="M101.1,135.74c-1.62,0-3.05-0.47-4.59-1.49c-1.67-1.11-2.74-2.4-3.38-4.06c-0.63-1.65-0.31-3.45,0.93-5.33
			l0,0c1.32-2,2.94-3.09,4.68-3.17c1.85-0.08,3.42,0.39,5.08,1.52c1.65,1.13,2.68,2.4,3.32,4.11c0.78,2.07-0.15,4.13-1.07,5.49
			c-1.25,1.84-2.83,2.85-4.58,2.93C101.36,135.73,101.23,135.74,101.1,135.74z M94.89,125.4c-1.07,1.63-1.35,3.08-0.83,4.43
			c0.56,1.48,1.49,2.59,3,3.59c1.48,0.98,2.84,1.38,4.39,1.31c1.44-0.07,2.72-0.9,3.8-2.49c0.79-1.16,1.6-2.9,0.96-4.57
			c-0.57-1.51-1.48-2.63-2.95-3.64c-1.47-1-2.85-1.43-4.47-1.35C97.01,122.76,95.69,124.2,94.89,125.4L94.89,125.4z M110.48,123.97
			l-0.82-0.9c-2.24-2.45-4.55-4.97-6.93-7.35l-0.33-0.33l0.31-0.35c0.98-1.11,1.95-2.2,2.91-3.28c6.09-6.83,11.84-13.29,16.47-21.7
			l0.22-0.41l0.42,0.2c1.83,0.85,3.66,1.43,5.43,1.99c2.95,0.93,5.73,1.81,8.49,3.82l0.36,0.27l-0.23,0.39
			c-5.29,9.1-12.2,15.16-19.51,21.58c-2.1,1.84-4.27,3.74-6.42,5.74L110.48,123.97z M103.77,115.35c2.28,2.29,4.49,4.71,6.63,7.05
			l0.14,0.16c2.05-1.89,4.09-3.68,6.07-5.42c7.15-6.27,13.9-12.19,19.08-20.94c-2.51-1.73-5.1-2.55-7.83-3.41
			c-1.67-0.53-3.38-1.07-5.12-1.84c-4.64,8.31-10.34,14.71-16.37,21.48C105.51,113.39,104.64,114.36,103.77,115.35z"/>
		<path class="st1" d="M101.1,130.98c-0.57,0-1.1-0.12-1.98-0.7c-0.97-0.64-1.33-1.18-1.56-1.79c-0.01-0.02,0-0.33,0.46-1.03
			c0.49-0.75,0.89-1.02,0.99-1.05l0.12,0.01c0.6,0,1.14,0.12,2,0.7c0.84,0.57,1.26,1.08,1.56,1.87c-0.01,0.03-0.1,0.47-0.56,1.14
			c-0.43,0.63-0.77,0.84-0.86,0.85L101.1,130.98z M110.78,117.27c-0.63-0.68-1.26-1.36-1.9-2.03c0.1-0.11,0.19-0.21,0.29-0.32
			c5.49-6.15,10.71-12.01,15.19-19.32c0.8,0.28,1.59,0.52,2.36,0.77c1.28,0.4,2.47,0.78,3.6,1.23c-4.57,6.53-10.24,11.5-16.19,16.72
			C113.04,115.28,111.92,116.27,110.78,117.27z"/>
	</g>
	<g>
		<g>
			<path class="st1" d="M103.47,122.89c-0.23,0-0.44-0.17-0.49-0.4c-0.05-0.27,0.12-0.53,0.39-0.59l0.49-0.1
				c0.27-0.06,0.53,0.12,0.59,0.39c0.05,0.27-0.12,0.53-0.39,0.59l-0.49,0.1C103.53,122.88,103.5,122.89,103.47,122.89z"/>
			<path class="st1" d="M105.68,122.45c-0.23,0-0.44-0.17-0.49-0.4c-0.05-0.27,0.12-0.53,0.39-0.59l0.86-0.17
				c0.27-0.06,0.53,0.12,0.59,0.39c0.05,0.27-0.12,0.53-0.39,0.59l-0.86,0.17C105.74,122.45,105.71,122.45,105.68,122.45z"/>
			<path class="st1" d="M108.26,121.94c-0.23,0-0.44-0.17-0.49-0.4c-0.05-0.27,0.12-0.53,0.39-0.59l0.49-0.1
				c0.28-0.06,0.53,0.12,0.59,0.39c0.05,0.27-0.12,0.53-0.39,0.59l-0.49,0.1C108.32,121.94,108.29,121.94,108.26,121.94z"/>
		</g>
		<g>
			<path class="st1" d="M84.8,63.98c-0.25,0-0.46-0.18-0.5-0.43c-0.04-0.27,0.15-0.53,0.43-0.56l0.5-0.07
				c0.27-0.05,0.52,0.15,0.56,0.43c0.04,0.27-0.15,0.53-0.43,0.56l-0.5,0.07C84.85,63.98,84.82,63.98,84.8,63.98z"/>
			<path class="st1" d="M31.53,114.1c-0.18,0-0.36-0.1-0.45-0.28c-0.12-0.25-0.03-0.55,0.22-0.67c0.31-0.15,0.66-0.26,1.08-0.33
				c0.27-0.04,0.54,0.14,0.59,0.41c0.05,0.27-0.12,0.52-0.39,0.57c0,0-0.04,0.01-0.04,0.01c-0.32,0.05-0.58,0.13-0.79,0.23
				C31.68,114.08,31.61,114.1,31.53,114.1z M34.49,113.51c-0.25,0-0.46-0.18-0.49-0.43c-0.04-0.27,0.15-0.53,0.42-0.57l1-0.14
				c0.27-0.04,0.53,0.15,0.56,0.43c0.04,0.27-0.15,0.53-0.43,0.56l-1,0.14C34.54,113.51,34.52,113.51,34.49,113.51z M37.5,113.11
				c-0.25,0-0.46-0.19-0.5-0.44c-0.03-0.27,0.16-0.52,0.44-0.56l1-0.12c0.28-0.04,0.52,0.16,0.56,0.44s-0.16,0.52-0.44,0.56l-1,0.12
				C37.54,113.11,37.52,113.11,37.5,113.11z M40.51,112.75c-0.25,0-0.47-0.19-0.5-0.44c-0.03-0.27,0.16-0.52,0.44-0.56l1.01-0.12
				c0.28-0.03,0.52,0.17,0.55,0.44c0.03,0.27-0.17,0.52-0.44,0.55l-1,0.12C40.55,112.75,40.53,112.75,40.51,112.75z M43.52,112.41
				c-0.25,0-0.47-0.19-0.5-0.45c-0.03-0.27,0.17-0.52,0.44-0.55l1-0.11c0.27-0.03,0.52,0.17,0.55,0.44
				c0.03,0.27-0.17,0.52-0.44,0.55l-1,0.11C43.56,112.41,43.54,112.41,43.52,112.41z M46.53,112.07c-0.25,0-0.47-0.19-0.5-0.44
				c-0.03-0.27,0.16-0.52,0.44-0.55l1-0.12c0.27-0.04,0.52,0.16,0.56,0.44c0.03,0.27-0.16,0.52-0.44,0.56l-1.01,0.12
				C46.57,112.07,46.55,112.07,46.53,112.07z M49.54,111.7c-0.25,0-0.46-0.18-0.5-0.44c-0.03-0.27,0.16-0.52,0.43-0.56l1-0.13
				c0.27-0.04,0.53,0.16,0.56,0.43c0.04,0.27-0.16,0.52-0.43,0.56l-1,0.13C49.58,111.7,49.56,111.7,49.54,111.7z M52.42,110.92
				c-0.13,0-0.26-0.05-0.36-0.15c-0.19-0.2-0.19-0.51,0.01-0.71c0.16-0.15,0.24-0.34,0.27-0.59c0.03-0.28,0.28-0.48,0.55-0.44
				c0.27,0.03,0.47,0.27,0.44,0.55c-0.05,0.48-0.24,0.88-0.57,1.2C52.67,110.87,52.54,110.92,52.42,110.92z M52.45,108.05
				c-0.22,0-0.41-0.14-0.48-0.36l-0.29-0.97c-0.08-0.26,0.07-0.54,0.33-0.62c0.26-0.08,0.54,0.07,0.62,0.33l0.29,0.97
				c0.08,0.26-0.07,0.54-0.34,0.62C52.54,108.05,52.5,108.05,52.45,108.05z M51.58,105.15c-0.21,0-0.41-0.14-0.48-0.36l-0.29-0.97
				c-0.08-0.26,0.07-0.54,0.33-0.62c0.27-0.08,0.54,0.07,0.62,0.33l0.29,0.97c0.08,0.26-0.07,0.54-0.33,0.62
				C51.67,105.14,51.62,105.15,51.58,105.15z M50.69,102.25c-0.21,0-0.41-0.14-0.48-0.35l-0.3-0.97c-0.08-0.26,0.07-0.54,0.33-0.62
				c0.27-0.08,0.54,0.07,0.62,0.33l0.3,0.97c0.08,0.26-0.07,0.54-0.33,0.62C50.79,102.24,50.74,102.25,50.69,102.25z M49.81,99.35
				c-0.21,0-0.41-0.14-0.48-0.35l-0.3-0.97c-0.08-0.26,0.07-0.54,0.33-0.62c0.26-0.08,0.54,0.07,0.62,0.33l0.3,0.97
				c0.08,0.26-0.07,0.54-0.33,0.62C49.9,99.34,49.85,99.35,49.81,99.35z M48.91,96.45c-0.21,0-0.41-0.14-0.48-0.35l-0.3-0.97
				c-0.08-0.26,0.07-0.54,0.33-0.63c0.27-0.08,0.54,0.07,0.63,0.33l0.3,0.97c0.08,0.26-0.07,0.54-0.33,0.63
				C49.01,96.44,48.96,96.45,48.91,96.45z M48.01,93.55c-0.21,0-0.41-0.14-0.48-0.35l-0.3-0.96c-0.08-0.26,0.06-0.54,0.33-0.63
				c0.27-0.08,0.54,0.06,0.63,0.33l0.3,0.97c0.08,0.26-0.07,0.54-0.33,0.62C48.11,93.55,48.06,93.55,48.01,93.55z M47.11,90.66
				c-0.21,0-0.41-0.14-0.48-0.35l-0.3-0.96c-0.08-0.26,0.06-0.54,0.33-0.63c0.26-0.08,0.54,0.06,0.63,0.33l0.3,0.96
				c0.08,0.26-0.06,0.54-0.33,0.63C47.21,90.66,47.16,90.66,47.11,90.66z M46.2,87.77c-0.21,0-0.41-0.14-0.48-0.35l-0.3-0.96
				c-0.08-0.26,0.06-0.54,0.33-0.63c0.27-0.08,0.54,0.06,0.63,0.33l0.3,0.96c0.08,0.26-0.06,0.54-0.33,0.63
				C46.3,87.77,46.25,87.77,46.2,87.77z M45.28,84.88c-0.21,0-0.41-0.14-0.48-0.35l-0.31-0.96c-0.08-0.26,0.06-0.54,0.32-0.63
				c0.26-0.08,0.54,0.06,0.63,0.33l0.31,0.96c0.08,0.26-0.06,0.54-0.33,0.63C45.38,84.88,45.33,84.88,45.28,84.88z M44.36,82
				c-0.21,0-0.41-0.13-0.48-0.35l-0.31-0.96c-0.08-0.26,0.06-0.54,0.32-0.63c0.26-0.08,0.54,0.06,0.63,0.33l0.31,0.96
				c0.08,0.26-0.06,0.54-0.32,0.63C44.47,81.99,44.42,82,44.36,82z M43.44,79.11c-0.21,0-0.41-0.13-0.48-0.35l-0.31-0.96
				c-0.08-0.26,0.06-0.54,0.32-0.63c0.26-0.09,0.54,0.06,0.63,0.32l0.31,0.96c0.08,0.26-0.06,0.54-0.32,0.63
				C43.54,79.1,43.49,79.11,43.44,79.11z M42.52,76.23c-0.21,0-0.41-0.13-0.48-0.35l-0.31-0.96c-0.08-0.26,0.06-0.54,0.32-0.63
				c0.26-0.08,0.54,0.06,0.63,0.32l0.31,0.96c0.08,0.26-0.06,0.54-0.32,0.63C42.62,76.22,42.57,76.23,42.52,76.23z M41.62,73.33
				c-0.23,0-0.44-0.17-0.49-0.41c-0.05-0.24-0.07-0.47-0.07-0.68c0-0.18,0.02-0.36,0.05-0.52c0.05-0.27,0.32-0.45,0.59-0.39
				c0.27,0.06,0.45,0.32,0.39,0.59c-0.02,0.1-0.03,0.21-0.03,0.32c0,0.15,0.02,0.32,0.05,0.49c0.05,0.27-0.12,0.53-0.4,0.59
				C41.68,73.33,41.65,73.33,41.62,73.33z M42.97,70.99c-0.21,0-0.41-0.13-0.48-0.35c-0.08-0.26,0.06-0.54,0.32-0.63
				c0.13-0.04,0.27-0.08,0.41-0.11l0.61-0.14c0.27-0.06,0.54,0.11,0.6,0.38c0.06,0.27-0.11,0.54-0.38,0.6l-0.61,0.14
				c-0.12,0.03-0.23,0.06-0.33,0.09C43.07,70.98,43.02,70.99,42.97,70.99z M45.92,70.32c-0.23,0-0.44-0.16-0.49-0.39
				c-0.06-0.27,0.11-0.54,0.38-0.59l0.99-0.21c0.27-0.05,0.54,0.12,0.59,0.38c0.06,0.27-0.11,0.54-0.38,0.59l-0.99,0.21
				C46,70.31,45.96,70.32,45.92,70.32z M48.89,69.69c-0.23,0-0.44-0.16-0.49-0.4c-0.06-0.27,0.12-0.53,0.39-0.59l0.99-0.2
				c0.27-0.05,0.53,0.12,0.59,0.39c0.05,0.27-0.12,0.53-0.39,0.59l-0.99,0.2C48.96,69.69,48.92,69.69,48.89,69.69z M51.86,69.1
				c-0.23,0-0.44-0.17-0.49-0.4c-0.05-0.27,0.12-0.53,0.4-0.59l0.99-0.19c0.27-0.05,0.53,0.12,0.59,0.4
				c0.05,0.27-0.13,0.53-0.4,0.58l-0.99,0.19C51.93,69.09,51.89,69.1,51.86,69.1z M54.84,68.53c-0.24,0-0.45-0.17-0.49-0.41
				c-0.05-0.27,0.13-0.53,0.4-0.58l0.99-0.18c0.27-0.04,0.53,0.13,0.58,0.4c0.05,0.27-0.13,0.53-0.4,0.58l-0.99,0.18
				C54.9,68.53,54.87,68.53,54.84,68.53z M57.82,68c-0.24,0-0.45-0.17-0.49-0.41c-0.05-0.27,0.13-0.53,0.41-0.58l1-0.17
				c0.27-0.05,0.53,0.13,0.58,0.41c0.05,0.27-0.14,0.53-0.41,0.58l-0.99,0.17C57.88,67.99,57.85,68,57.82,68z M60.81,67.48
				c-0.24,0-0.45-0.17-0.49-0.42c-0.05-0.27,0.14-0.53,0.41-0.58l1-0.17c0.28-0.05,0.53,0.14,0.57,0.41
				c0.04,0.27-0.14,0.53-0.41,0.57l-1,0.17C60.87,67.48,60.84,67.48,60.81,67.48z M63.8,66.99c-0.24,0-0.45-0.17-0.49-0.42
				c-0.04-0.27,0.14-0.53,0.41-0.57l1-0.16c0.27-0.04,0.53,0.14,0.57,0.42s-0.14,0.53-0.42,0.57l-1,0.16
				C63.85,66.99,63.83,66.99,63.8,66.99z M66.8,66.52c-0.24,0-0.46-0.18-0.49-0.42c-0.04-0.27,0.14-0.53,0.42-0.57l1-0.15
				c0.27-0.04,0.53,0.15,0.57,0.42c0.04,0.27-0.15,0.53-0.42,0.57l-1,0.15C66.85,66.52,66.82,66.52,66.8,66.52z M69.79,66.07
				c-0.24,0-0.46-0.18-0.49-0.43c-0.04-0.27,0.15-0.53,0.42-0.57l1-0.15c0.28-0.03,0.53,0.15,0.57,0.42s-0.15,0.53-0.42,0.57
				l-1,0.15C69.84,66.06,69.82,66.07,69.79,66.07z M72.79,65.63c-0.24,0-0.46-0.18-0.49-0.43c-0.04-0.27,0.15-0.53,0.42-0.57l1-0.14
				c0.27-0.04,0.53,0.15,0.57,0.42c0.04,0.27-0.15,0.53-0.42,0.57l-1,0.14C72.84,65.63,72.81,65.63,72.79,65.63z M75.93,65.19
				l-0.14-0.49l-0.07-0.5l1-0.14c0.28-0.04,0.53,0.15,0.56,0.43c0.04,0.27-0.15,0.53-0.43,0.56L75.93,65.19z M78.79,64.79
				c-0.25,0-0.46-0.18-0.5-0.43c-0.04-0.27,0.16-0.53,0.43-0.56l1-0.14c0.28-0.05,0.53,0.16,0.56,0.43s-0.16,0.53-0.43,0.56l-1,0.14
				C78.84,64.79,78.82,64.79,78.79,64.79z M81.8,64.38c-0.25,0-0.46-0.18-0.5-0.43c-0.04-0.27,0.16-0.53,0.43-0.56l1-0.13
				c0.27-0.05,0.52,0.16,0.56,0.43c0.04,0.27-0.16,0.53-0.43,0.56l-1,0.13C81.84,64.38,81.82,64.38,81.8,64.38z"/>
			<path class="st1" d="M30.64,116.74c-0.21,0-0.41-0.13-0.48-0.35c-0.05-0.14-0.08-0.29-0.1-0.46c-0.03-0.06-0.04-0.12-0.04-0.19
				c0,0,0,0,0-0.01c0-0.04,0.01-0.08,0.01-0.11c-0.01-0.14-0.01-0.27,0-0.4c0.01-0.28,0.25-0.5,0.52-0.48
				c0.28,0.01,0.49,0.25,0.48,0.52c-0.01,0.14,0,0.28,0.01,0.44c0,0,0,0,0,0c0.01,0.14,0.04,0.26,0.07,0.38
				c0.08,0.26-0.06,0.54-0.32,0.63C30.74,116.73,30.69,116.74,30.64,116.74z"/>
			<path class="st1" d="M59.81,130.61c-0.28,0-0.5-0.22-0.5-0.5s0.22-0.5,0.5-0.5c0.1,0,0.21-0.01,0.34-0.03l0.6-0.08
				c0.27-0.04,0.53,0.15,0.57,0.42c0.04,0.27-0.15,0.53-0.42,0.57l-0.6,0.08C60.1,130.59,59.94,130.61,59.81,130.61z M62.82,130.2
				c-0.24,0-0.46-0.18-0.49-0.43c-0.04-0.27,0.15-0.53,0.42-0.57l1-0.15c0.28-0.04,0.53,0.15,0.57,0.42s-0.15,0.53-0.42,0.57
				l-1,0.15C62.87,130.2,62.85,130.2,62.82,130.2z M57.93,129.87c-0.07,0-0.15-0.02-0.22-0.05l-0.92-0.44
				c-0.25-0.12-0.36-0.42-0.24-0.67c0.12-0.25,0.42-0.36,0.67-0.24l0.92,0.44c0.25,0.12,0.35,0.42,0.23,0.67
				C58.3,129.77,58.12,129.87,57.93,129.87z M65.83,129.74c-0.24,0-0.46-0.18-0.49-0.42c-0.04-0.27,0.15-0.53,0.42-0.57l1-0.16
				c0.27-0.04,0.53,0.15,0.57,0.42c0.04,0.27-0.15,0.53-0.42,0.57l-1,0.16C65.88,129.74,65.86,129.74,65.83,129.74z M68.84,129.27
				c-0.24,0-0.45-0.17-0.49-0.42c-0.04-0.27,0.14-0.53,0.41-0.57l1-0.16c0.27-0.05,0.53,0.14,0.57,0.41
				c0.04,0.27-0.14,0.53-0.41,0.57l-1,0.16C68.89,129.27,68.87,129.27,68.84,129.27z M71.84,128.78c-0.24,0-0.45-0.17-0.49-0.42
				c-0.05-0.27,0.14-0.53,0.41-0.58l1-0.17c0.27-0.05,0.53,0.14,0.58,0.41c0.05,0.27-0.14,0.53-0.41,0.58l-1,0.17
				C71.9,128.78,71.87,128.78,71.84,128.78z M55.18,128.57c-0.07,0-0.14-0.02-0.21-0.05l-0.92-0.43c-0.25-0.12-0.36-0.42-0.24-0.67
				s0.42-0.36,0.66-0.24l0.92,0.43c0.25,0.12,0.36,0.42,0.24,0.67C55.55,128.46,55.37,128.57,55.18,128.57z M74.84,128.27
				c-0.24,0-0.45-0.17-0.49-0.42c-0.05-0.27,0.14-0.53,0.41-0.58l1-0.17c0.27-0.05,0.53,0.14,0.58,0.41
				c0.05,0.27-0.14,0.53-0.41,0.58l-1,0.17C74.9,128.27,74.87,128.27,74.84,128.27z M77.84,127.75c-0.24,0-0.45-0.17-0.49-0.41
				c-0.05-0.27,0.13-0.53,0.41-0.58l1-0.18c0.27-0.04,0.53,0.13,0.58,0.4s-0.13,0.53-0.4,0.58l-1,0.18
				C77.9,127.75,77.87,127.75,77.84,127.75z M52.42,127.28c-0.07,0-0.14-0.01-0.21-0.05l-0.92-0.43c-0.25-0.12-0.36-0.41-0.24-0.66
				c0.12-0.25,0.41-0.36,0.66-0.25l0.92,0.43c0.25,0.12,0.36,0.41,0.24,0.66C52.79,127.17,52.61,127.28,52.42,127.28z M80.84,127.22
				c-0.24,0-0.45-0.17-0.49-0.41c-0.05-0.27,0.13-0.53,0.4-0.58l1-0.18c0.27-0.04,0.53,0.13,0.58,0.4c0.05,0.27-0.13,0.53-0.4,0.58
				l-1,0.18C80.9,127.21,80.87,127.22,80.84,127.22z M83.83,126.67c-0.24,0-0.45-0.17-0.49-0.41c-0.05-0.27,0.13-0.53,0.4-0.58
				l1-0.18c0.27-0.05,0.53,0.13,0.58,0.4c0.05,0.27-0.13,0.53-0.4,0.58l-1,0.18C83.9,126.67,83.87,126.67,83.83,126.67z
				 M86.83,126.11c-0.24,0-0.45-0.17-0.49-0.41c-0.05-0.27,0.13-0.53,0.4-0.58l1-0.19c0.27-0.05,0.53,0.13,0.58,0.4
				c0.05,0.27-0.13,0.53-0.4,0.58l-1,0.19C86.89,126.11,86.86,126.11,86.83,126.11z M49.66,126c-0.07,0-0.14-0.01-0.21-0.05
				l-0.92-0.42c-0.25-0.12-0.36-0.41-0.25-0.66c0.11-0.25,0.41-0.36,0.66-0.25l0.92,0.42c0.25,0.12,0.36,0.41,0.24,0.66
				C50.03,125.89,49.85,126,49.66,126z M89.82,125.55c-0.24,0-0.44-0.17-0.49-0.41c-0.05-0.27,0.13-0.53,0.4-0.58l1-0.19
				c0.27-0.05,0.53,0.13,0.58,0.4c0.05,0.27-0.13,0.53-0.4,0.58l-1,0.19C89.88,125.54,89.85,125.55,89.82,125.55z M46.89,124.74
				c-0.07,0-0.14-0.01-0.21-0.04l-0.92-0.42c-0.25-0.11-0.36-0.41-0.25-0.66c0.11-0.25,0.41-0.36,0.66-0.25l0.93,0.42
				c0.25,0.12,0.36,0.41,0.25,0.66C47.26,124.63,47.08,124.74,46.89,124.74z M44.12,123.48c-0.07,0-0.14-0.01-0.2-0.04l-0.92-0.42
				c-0.25-0.11-0.36-0.41-0.25-0.66c0.11-0.25,0.41-0.37,0.66-0.25l0.92,0.42c0.25,0.11,0.36,0.41,0.25,0.66
				C44.49,123.37,44.31,123.48,44.12,123.48z M41.34,122.23c-0.07,0-0.14-0.01-0.2-0.04l-0.92-0.42c-0.25-0.11-0.36-0.41-0.25-0.66
				c0.11-0.25,0.41-0.36,0.66-0.25l0.92,0.42c0.25,0.11,0.36,0.41,0.25,0.66C41.72,122.12,41.53,122.23,41.34,122.23z M38.57,120.98
				c-0.07,0-0.14-0.01-0.2-0.04l-0.92-0.42c-0.25-0.11-0.36-0.41-0.25-0.66c0.11-0.25,0.41-0.37,0.66-0.25l0.92,0.42
				c0.25,0.11,0.36,0.41,0.25,0.66C38.94,120.87,38.76,120.98,38.57,120.98z M35.79,119.73c-0.07,0-0.14-0.01-0.2-0.04l-0.92-0.42
				c-0.25-0.11-0.36-0.41-0.25-0.66c0.11-0.25,0.41-0.37,0.66-0.25l0.92,0.42c0.25,0.11,0.36,0.41,0.25,0.66
				C36.17,119.62,35.98,119.73,35.79,119.73z M33.02,118.48c-0.07,0-0.14-0.01-0.2-0.04l-0.93-0.42c-0.25-0.11-0.36-0.41-0.25-0.66
				c0.11-0.25,0.41-0.36,0.66-0.25l0.92,0.42c0.25,0.11,0.36,0.41,0.25,0.66C33.39,118.37,33.21,118.48,33.02,118.48z"/>
			<path class="st1" d="M92.82,124.97c-0.24,0-0.44-0.17-0.49-0.41c-0.05-0.27,0.13-0.53,0.4-0.58l0.49-0.09
				c0.27-0.06,0.53,0.12,0.59,0.39s-0.12,0.53-0.39,0.59l-0.49,0.1C92.88,124.97,92.85,124.97,92.82,124.97z"/>
		</g>
		<g>
			<path class="st1" d="M107.57,60.88c-0.25,0-0.46-0.18-0.49-0.43c-0.04-0.27,0.15-0.53,0.42-0.57l0.49-0.07
				c0.28-0.04,0.53,0.15,0.57,0.42c0.04,0.27-0.15,0.53-0.42,0.57l-0.5,0.07C107.62,60.88,107.6,60.88,107.57,60.88z"/>
			<path class="st1" d="M93.62,62.81c-0.25,0-0.46-0.18-0.5-0.43c-0.04-0.27,0.15-0.53,0.43-0.56l0.93-0.12
				c0.27-0.04,0.52,0.16,0.56,0.43c0.04,0.27-0.16,0.53-0.43,0.56l-0.93,0.12C93.67,62.81,93.64,62.81,93.62,62.81z M96.41,62.44
				c-0.25,0-0.46-0.18-0.5-0.43c-0.04-0.27,0.16-0.53,0.43-0.56l0.93-0.12c0.27-0.05,0.53,0.15,0.56,0.43s-0.15,0.53-0.43,0.56
				l-0.93,0.13C96.46,62.44,96.44,62.44,96.41,62.44z M99.21,62.06c-0.25,0-0.46-0.18-0.49-0.43c-0.04-0.27,0.15-0.53,0.43-0.56
				l0.93-0.13c0.28-0.04,0.53,0.15,0.56,0.43c0.04,0.27-0.15,0.53-0.43,0.56l-0.93,0.13C99.25,62.06,99.23,62.06,99.21,62.06z
				 M102,61.68c-0.25,0-0.46-0.18-0.49-0.43c-0.04-0.27,0.15-0.53,0.42-0.57l0.93-0.13c0.27-0.04,0.53,0.15,0.56,0.43
				c0.04,0.27-0.15,0.53-0.43,0.56l-0.93,0.13C102.04,61.68,102.02,61.68,102,61.68z M104.85,61.28c-0.25,0-0.49-0.18-0.52-0.43
				c-0.04-0.27,0.12-0.52,0.39-0.56l0.93-0.13c0.27-0.04,0.53,0.15,0.57,0.42c0.04,0.27-0.15,0.53-0.42,0.57l-0.87,0.12
				C104.9,61.28,104.87,61.28,104.85,61.28z"/>
			<path class="st1" d="M91.26,63.12c-0.25,0-0.46-0.18-0.5-0.44c-0.04-0.27,0.16-0.52,0.43-0.56l0.49-0.06
				c0.27-0.04,0.53,0.15,0.56,0.43s-0.15,0.53-0.43,0.56l-0.5,0.07C91.3,63.12,91.28,63.12,91.26,63.12z"/>
		</g>
		<g>
			<path class="st1" d="M113.7,120.87c-0.23,0-0.44-0.17-0.49-0.4c-0.05-0.27,0.12-0.53,0.39-0.59l0.49-0.1
				c0.27-0.05,0.53,0.13,0.58,0.4c0.05,0.27-0.13,0.53-0.4,0.58l-0.49,0.09C113.76,120.87,113.73,120.87,113.7,120.87z"/>
			<path class="st1" d="M116.16,120.39c-0.23,0-0.44-0.17-0.49-0.41c-0.05-0.27,0.12-0.53,0.4-0.59l0.98-0.19
				c0.27-0.06,0.53,0.12,0.59,0.39c0.05,0.27-0.12,0.53-0.39,0.59l-0.99,0.19C116.23,120.39,116.2,120.39,116.16,120.39z
				 M119.12,119.82c-0.23,0-0.44-0.17-0.49-0.41c-0.05-0.27,0.12-0.53,0.4-0.59l0.99-0.19c0.27-0.05,0.53,0.13,0.58,0.4
				c0.05,0.27-0.13,0.53-0.4,0.58l-0.99,0.19C119.19,119.82,119.16,119.82,119.12,119.82z M122.08,119.25
				c-0.24,0-0.45-0.17-0.49-0.41c-0.05-0.27,0.13-0.53,0.4-0.58l0.99-0.19c0.27-0.05,0.53,0.13,0.58,0.4
				c0.05,0.27-0.13,0.53-0.4,0.58l-0.99,0.19C122.15,119.25,122.12,119.25,122.08,119.25z M125.05,118.7
				c-0.24,0-0.45-0.17-0.49-0.41c-0.05-0.27,0.13-0.53,0.4-0.58l0.99-0.18c0.28-0.04,0.53,0.13,0.58,0.4
				c0.05,0.27-0.13,0.53-0.4,0.58l-0.99,0.18C125.11,118.69,125.08,118.7,125.05,118.7z M128.01,118.15c-0.24,0-0.45-0.17-0.49-0.41
				c-0.05-0.27,0.13-0.53,0.4-0.58l0.99-0.18c0.27-0.05,0.53,0.13,0.58,0.4c0.05,0.27-0.13,0.53-0.4,0.58l-0.99,0.18
				C128.07,118.14,128.04,118.15,128.01,118.15z M130.98,117.61c-0.24,0-0.45-0.17-0.49-0.41c-0.05-0.27,0.13-0.53,0.4-0.58
				l0.99-0.18c0.28-0.04,0.53,0.13,0.58,0.41c0.05,0.27-0.13,0.53-0.4,0.58l-0.99,0.18C131.04,117.61,131.01,117.61,130.98,117.61z
				 M133.94,117.08c-0.24,0-0.45-0.17-0.49-0.41c-0.05-0.27,0.13-0.53,0.41-0.58l0.99-0.17c0.27-0.06,0.53,0.13,0.58,0.41
				c0.05,0.27-0.13,0.53-0.41,0.58l-0.99,0.17C134,117.08,133.97,117.08,133.94,117.08z M136.91,116.57c-0.24,0-0.45-0.17-0.49-0.42
				c-0.05-0.27,0.14-0.53,0.41-0.58l0.99-0.17c0.27-0.05,0.53,0.14,0.58,0.41s-0.14,0.53-0.41,0.58l-0.99,0.17
				C136.97,116.57,136.94,116.57,136.91,116.57z M139.89,116.07c-0.24,0-0.45-0.17-0.49-0.42c-0.05-0.27,0.14-0.53,0.41-0.58
				l0.99-0.16c0.27-0.04,0.53,0.14,0.57,0.42c0.04,0.27-0.14,0.53-0.42,0.57l-0.99,0.16C139.94,116.07,139.91,116.07,139.89,116.07z
				 M142.86,115.59c-0.24,0-0.45-0.17-0.49-0.42c-0.04-0.27,0.14-0.53,0.42-0.57l0.99-0.16c0.27-0.04,0.53,0.14,0.57,0.42
				s-0.14,0.53-0.42,0.57l-0.99,0.16C142.92,115.59,142.89,115.59,142.86,115.59z M145.84,115.12c-0.24,0-0.46-0.18-0.49-0.42
				c-0.04-0.27,0.15-0.53,0.42-0.57l0.99-0.15c0.27-0.04,0.53,0.15,0.57,0.42c0.04,0.27-0.15,0.53-0.42,0.57l-0.99,0.15
				C145.89,115.12,145.87,115.12,145.84,115.12z M148.74,114.43c-0.15,0-0.3-0.07-0.4-0.19c-0.17-0.22-0.13-0.53,0.09-0.7
				c0.18-0.14,0.3-0.32,0.39-0.58c0.09-0.26,0.37-0.4,0.63-0.31c0.26,0.09,0.4,0.37,0.31,0.63c-0.15,0.45-0.39,0.79-0.72,1.05
				C148.96,114.4,148.85,114.43,148.74,114.43z M149.37,111.64c-0.23,0-0.43-0.16-0.49-0.39c-0.02-0.11-0.04-0.21-0.05-0.28
				c-0.01-0.11-0.01-0.12-0.04-0.2l-0.16-0.43c-0.09-0.26,0.04-0.55,0.3-0.64c0.26-0.09,0.55,0.04,0.64,0.3l0.13,0.36
				c0.07,0.19,0.11,0.29,0.13,0.52c0,0.04,0.01,0.09,0.03,0.14c0.06,0.27-0.11,0.54-0.38,0.6
				C149.44,111.63,149.41,111.64,149.37,111.64z M148.42,108.78c-0.21,0-0.4-0.13-0.47-0.33l-0.34-0.94
				c-0.09-0.26,0.04-0.55,0.3-0.64c0.26-0.09,0.55,0.04,0.64,0.3l0.34,0.95c0.09,0.26-0.04,0.55-0.3,0.64
				C148.53,108.77,148.48,108.78,148.42,108.78z M147.4,105.95c-0.21,0-0.4-0.13-0.47-0.33l-0.34-0.95
				c-0.09-0.26,0.04-0.55,0.3-0.64c0.26-0.09,0.55,0.04,0.64,0.3l0.34,0.95c0.09,0.26-0.04,0.55-0.3,0.64
				C147.52,105.94,147.46,105.95,147.4,105.95z M146.4,103.1c-0.21,0-0.4-0.13-0.47-0.33l-0.33-0.95c-0.09-0.26,0.05-0.55,0.31-0.64
				c0.26-0.09,0.55,0.05,0.64,0.31l0.33,0.95c0.09,0.26-0.05,0.55-0.31,0.64C146.51,103.09,146.46,103.1,146.4,103.1z
				 M145.41,100.26c-0.21,0-0.4-0.13-0.47-0.34l-0.33-0.95c-0.09-0.26,0.05-0.55,0.31-0.64c0.26-0.09,0.55,0.05,0.64,0.31l0.33,0.95
				c0.09,0.26-0.05,0.55-0.31,0.64C145.52,100.25,145.46,100.26,145.41,100.26z M144.43,97.41c-0.21,0-0.4-0.13-0.47-0.34
				l-0.33-0.95c-0.09-0.26,0.05-0.54,0.31-0.63c0.26-0.09,0.55,0.05,0.63,0.31l0.33,0.95c0.09,0.26-0.05,0.55-0.31,0.64
				C144.53,97.4,144.48,97.41,144.43,97.41z M143.45,94.56c-0.21,0-0.4-0.13-0.47-0.34l-0.32-0.95c-0.09-0.26,0.05-0.55,0.31-0.63
				c0.26-0.08,0.55,0.05,0.63,0.31l0.32,0.95c0.09,0.26-0.05,0.55-0.31,0.63C143.56,94.55,143.5,94.56,143.45,94.56z M142.48,91.7
				c-0.21,0-0.4-0.13-0.47-0.34l-0.32-0.95c-0.09-0.26,0.05-0.54,0.31-0.63c0.26-0.09,0.55,0.05,0.63,0.31l0.32,0.95
				c0.09,0.26-0.05,0.54-0.31,0.63C142.59,91.69,142.54,91.7,142.48,91.7z M141.52,88.84c-0.21,0-0.4-0.13-0.47-0.34l-0.32-0.95
				c-0.09-0.26,0.05-0.55,0.32-0.63c0.26-0.09,0.54,0.05,0.63,0.32l0.32,0.95c0.09,0.26-0.05,0.55-0.31,0.63
				C141.63,88.84,141.58,88.84,141.52,88.84z M140.57,85.99c-0.21,0-0.4-0.13-0.47-0.34l-0.32-0.95c-0.09-0.26,0.05-0.55,0.32-0.63
				c0.26-0.09,0.54,0.06,0.63,0.32l0.32,0.95c0.09,0.26-0.05,0.54-0.32,0.63C140.67,85.98,140.62,85.99,140.57,85.99z M139.61,83.12
				c-0.21,0-0.41-0.13-0.47-0.34l-0.32-0.95c-0.09-0.26,0.05-0.54,0.32-0.63c0.26-0.09,0.54,0.05,0.63,0.32l0.32,0.96
				c0.09,0.26-0.06,0.54-0.32,0.63C139.72,83.12,139.67,83.12,139.61,83.12z M138.67,80.26c-0.21,0-0.41-0.13-0.47-0.34l-0.32-0.95
				c-0.09-0.26,0.06-0.54,0.32-0.63c0.26-0.09,0.55,0.06,0.63,0.32l0.32,0.95c0.09,0.26-0.06,0.54-0.32,0.63
				C138.77,80.26,138.72,80.26,138.67,80.26z M137.72,77.4c-0.21,0-0.41-0.13-0.48-0.34l-0.31-0.95c-0.09-0.26,0.05-0.54,0.32-0.63
				c0.26-0.09,0.54,0.05,0.63,0.32l0.32,0.96c0.09,0.26-0.06,0.54-0.32,0.63C137.82,77.39,137.77,77.4,137.72,77.4z M136.77,74.54
				c-0.21,0-0.41-0.13-0.47-0.34l-0.32-0.95c-0.09-0.26,0.05-0.54,0.32-0.63c0.26-0.09,0.54,0.05,0.63,0.32l0.32,0.96
				c0.09,0.26-0.06,0.54-0.32,0.63C136.88,74.53,136.82,74.54,136.77,74.54z M135.83,71.68c-0.21,0-0.41-0.13-0.48-0.34l-0.31-0.95
				c-0.09-0.26,0.05-0.54,0.32-0.63c0.26-0.09,0.54,0.06,0.63,0.32l0.32,0.96c0.09,0.26-0.06,0.54-0.32,0.63
				C135.93,71.67,135.88,71.68,135.83,71.68z M134.88,68.81c-0.21,0-0.41-0.13-0.47-0.34l-0.32-0.95c-0.09-0.26,0.05-0.54,0.32-0.63
				c0.26-0.09,0.55,0.05,0.63,0.32l0.32,0.95c0.09,0.26-0.06,0.54-0.32,0.63C134.98,68.81,134.93,68.81,134.88,68.81z M133.93,65.95
				c-0.21,0-0.4-0.13-0.47-0.34l-0.32-0.96c-0.09-0.26,0.05-0.54,0.32-0.63c0.26-0.09,0.55,0.05,0.63,0.32l0.32,0.95
				c0.09,0.26-0.05,0.55-0.32,0.63C134.03,65.94,133.98,65.95,133.93,65.95z M132.98,63.09c-0.21,0-0.4-0.13-0.47-0.34l-0.32-0.95
				c-0.09-0.26,0.05-0.55,0.32-0.63s0.55,0.06,0.63,0.32l0.32,0.95c0.09,0.26-0.05,0.55-0.32,0.63
				C133.08,63.08,133.03,63.09,132.98,63.09z M132.02,60.23c-0.21,0-0.4-0.13-0.47-0.34l-0.32-0.95c-0.09-0.26,0.05-0.54,0.32-0.63
				c0.26-0.09,0.55,0.05,0.63,0.32l0.32,0.95c0.09,0.26-0.05,0.54-0.31,0.63C132.12,60.22,132.07,60.23,132.02,60.23z M130.85,57.48
				c-0.12,0-0.24-0.04-0.34-0.13c-0.15-0.14-0.34-0.21-0.6-0.22c-0.28-0.01-0.49-0.25-0.48-0.52c0.01-0.28,0.25-0.5,0.52-0.48
				c0.5,0.02,0.91,0.18,1.23,0.49c0.2,0.19,0.21,0.5,0.02,0.71C131.11,57.43,130.98,57.48,130.85,57.48z"/>
			<path class="st1" d="M127.45,57.54c-0.23,0-0.44-0.17-0.49-0.4c-0.05-0.27,0.12-0.53,0.39-0.59l0.49-0.1
				c0.27-0.06,0.53,0.12,0.59,0.39c0.05,0.27-0.12,0.53-0.39,0.59l-0.49,0.1C127.52,57.53,127.48,57.54,127.45,57.54z"/>
		</g>
		<g>
			<path class="st1" d="M53.88,112.78c-0.21,0-0.4-0.13-0.47-0.34l-0.16-0.47c-0.09-0.26,0.05-0.54,0.31-0.63
				c0.27-0.09,0.55,0.05,0.63,0.31l0.16,0.47c0.09,0.26-0.05,0.54-0.31,0.63C53.98,112.77,53.93,112.78,53.88,112.78z"/>
			<path class="st1" d="M58.28,126.23c-0.21,0-0.41-0.13-0.48-0.35l-0.29-0.9c-0.09-0.26,0.06-0.54,0.32-0.63
				c0.26-0.08,0.54,0.06,0.63,0.32l0.29,0.9c0.08,0.26-0.06,0.54-0.32,0.63C58.38,126.22,58.33,126.23,58.28,126.23z M57.4,123.54
				c-0.21,0-0.41-0.13-0.48-0.35l-0.29-0.9c-0.09-0.26,0.06-0.54,0.32-0.63c0.26-0.09,0.54,0.06,0.63,0.32l0.29,0.9
				c0.08,0.26-0.06,0.54-0.32,0.63C57.51,123.53,57.45,123.54,57.4,123.54z M56.53,120.85c-0.21,0-0.41-0.13-0.48-0.34l-0.29-0.9
				c-0.09-0.26,0.06-0.54,0.32-0.63c0.26-0.08,0.54,0.06,0.63,0.32l0.29,0.9c0.09,0.26-0.06,0.54-0.32,0.63
				C56.63,120.84,56.58,120.85,56.53,120.85z M55.65,118.16c-0.21,0-0.41-0.13-0.48-0.34l-0.29-0.9c-0.09-0.26,0.06-0.54,0.32-0.63
				c0.27-0.09,0.54,0.06,0.63,0.32l0.29,0.9c0.09,0.26-0.06,0.54-0.32,0.63C55.76,118.15,55.7,118.16,55.65,118.16z M54.77,115.47
				c-0.21,0-0.41-0.13-0.47-0.34l-0.3-0.9c-0.09-0.26,0.06-0.54,0.32-0.63c0.26-0.09,0.54,0.05,0.63,0.32l0.3,0.9
				c0.09,0.26-0.06,0.54-0.32,0.63C54.87,115.46,54.82,115.47,54.77,115.47z"/>
			<path class="st1" d="M59.22,128.37c-0.07,0-0.15-0.02-0.22-0.05l-0.45-0.22c-0.25-0.12-0.35-0.42-0.23-0.67
				c0.12-0.25,0.42-0.36,0.67-0.23l0.16,0.08l0.07-0.08l0.33,0.29c0.19,0.17,0.23,0.44,0.09,0.65
				C59.54,128.29,59.38,128.37,59.22,128.37z"/>
			<path class="st1" d="M56.95,127.28c-0.07,0-0.15-0.02-0.22-0.05l-0.91-0.43c-0.25-0.12-0.36-0.42-0.24-0.67
				c0.12-0.25,0.42-0.36,0.67-0.24l0.91,0.43c0.25,0.12,0.35,0.42,0.23,0.67C57.31,127.17,57.13,127.28,56.95,127.28z M54.21,125.98
				c-0.07,0-0.14-0.02-0.21-0.05l-0.91-0.43c-0.25-0.12-0.36-0.42-0.24-0.67c0.12-0.25,0.41-0.36,0.66-0.24l0.91,0.43
				c0.25,0.12,0.36,0.42,0.24,0.67C54.58,125.87,54.4,125.98,54.21,125.98z M51.47,124.69c-0.07,0-0.14-0.01-0.21-0.05l-0.91-0.43
				c-0.25-0.12-0.36-0.41-0.24-0.66c0.12-0.25,0.41-0.36,0.66-0.24l0.92,0.43c0.25,0.12,0.36,0.42,0.24,0.67
				C51.84,124.59,51.66,124.69,51.47,124.69z M48.73,123.42c-0.07,0-0.14-0.01-0.21-0.05l-0.92-0.42c-0.25-0.12-0.36-0.41-0.24-0.66
				c0.12-0.25,0.41-0.36,0.66-0.24l0.92,0.42c0.25,0.12,0.36,0.41,0.24,0.66C49.1,123.31,48.92,123.42,48.73,123.42z M45.98,122.15
				c-0.07,0-0.14-0.01-0.21-0.05l-0.92-0.42c-0.25-0.12-0.36-0.41-0.25-0.66s0.41-0.36,0.66-0.25l0.92,0.42
				c0.25,0.12,0.36,0.41,0.25,0.66C46.35,122.04,46.17,122.15,45.98,122.15z M43.23,120.89c-0.07,0-0.14-0.01-0.21-0.04l-0.92-0.42
				c-0.25-0.12-0.36-0.41-0.25-0.66c0.11-0.25,0.41-0.36,0.66-0.25l0.92,0.42c0.25,0.12,0.36,0.41,0.25,0.66
				C43.6,120.78,43.42,120.89,43.23,120.89z M40.48,119.63c-0.07,0-0.14-0.01-0.21-0.04l-0.92-0.42c-0.25-0.12-0.36-0.41-0.25-0.66
				c0.11-0.25,0.41-0.36,0.66-0.25l0.92,0.42c0.25,0.12,0.36,0.41,0.25,0.66C40.85,119.52,40.67,119.63,40.48,119.63z M37.72,118.37
				c-0.07,0-0.14-0.01-0.21-0.05l-0.92-0.42c-0.25-0.12-0.36-0.41-0.25-0.66c0.11-0.25,0.41-0.36,0.66-0.25l0.92,0.42
				c0.25,0.12,0.36,0.41,0.25,0.66C38.1,118.26,37.91,118.37,37.72,118.37z M34.98,117.1c-0.07,0-0.14-0.01-0.21-0.05l-0.92-0.42
				c-0.25-0.12-0.36-0.41-0.24-0.66c0.12-0.25,0.41-0.36,0.66-0.25l0.92,0.42c0.25,0.12,0.36,0.41,0.24,0.66
				C35.35,116.99,35.17,117.1,34.98,117.1z"/>
			<path class="st1" d="M32.02,115.78l0.21-0.45l-0.28,0.42l-0.38-0.18c-0.25-0.12-0.36-0.42-0.24-0.67
				c0.12-0.25,0.42-0.35,0.67-0.24l0.38,0.18l-0.14,0.49L32.02,115.78z"/>
		</g>
		<g>
			<path class="st1" d="M75.69,122.17c-0.14,0-0.28-0.06-0.37-0.17l-0.65-0.73c-0.18-0.21-0.16-0.52,0.04-0.71
				c0.21-0.18,0.52-0.17,0.71,0.04l0.51,0.58c0.07,0.03,0.14,0.08,0.19,0.15c0.17,0.22,0.12,0.54-0.1,0.72
				c-0.02,0.01-0.05,0.04-0.07,0.05C75.86,122.15,75.77,122.17,75.69,122.17z M77.27,120.92c-0.15,0-0.29-0.06-0.39-0.19
				c-0.17-0.22-0.13-0.53,0.08-0.7l0.79-0.62c0.22-0.17,0.53-0.13,0.7,0.08c0.17,0.22,0.13,0.53-0.08,0.7l-0.78,0.62
				C77.48,120.88,77.37,120.92,77.27,120.92z M73.71,119.95c-0.14,0-0.27-0.06-0.37-0.17l-0.66-0.75c-0.18-0.21-0.16-0.52,0.04-0.71
				c0.21-0.18,0.52-0.17,0.71,0.04l0.66,0.75c0.18,0.21,0.16,0.52-0.04,0.71C73.94,119.9,73.82,119.95,73.71,119.95z M79.63,119.07
				c-0.15,0-0.3-0.07-0.4-0.19c-0.17-0.22-0.13-0.53,0.09-0.7l0.79-0.61c0.22-0.17,0.53-0.13,0.7,0.09c0.17,0.22,0.13,0.53-0.09,0.7
				l-0.79,0.61C79.84,119.03,79.73,119.07,79.63,119.07z M71.71,117.7c-0.14,0-0.27-0.06-0.37-0.17l-0.66-0.75
				c-0.18-0.21-0.16-0.52,0.04-0.71c0.21-0.18,0.52-0.17,0.71,0.04l0.66,0.75c0.18,0.21,0.16,0.52-0.04,0.71
				C71.95,117.66,71.83,117.7,71.71,117.7z M82,117.24c-0.15,0-0.3-0.07-0.4-0.2c-0.17-0.22-0.13-0.53,0.09-0.7l0.8-0.61
				c0.22-0.17,0.53-0.13,0.7,0.09c0.17,0.22,0.13,0.53-0.09,0.7l-0.79,0.61C82.21,117.2,82.11,117.24,82,117.24z M69.72,115.46
				c-0.14,0-0.27-0.06-0.37-0.17l-0.66-0.75c-0.18-0.21-0.16-0.52,0.04-0.71c0.21-0.18,0.52-0.17,0.71,0.04l0.66,0.75
				c0.18,0.21,0.16,0.52-0.04,0.71C69.96,115.42,69.84,115.46,69.72,115.46z M67.73,113.22c-0.14,0-0.27-0.06-0.37-0.17l-0.67-0.75
				c-0.18-0.21-0.17-0.52,0.04-0.71c0.2-0.18,0.52-0.17,0.71,0.04l0.67,0.75c0.18,0.21,0.17,0.52-0.04,0.71
				C67.97,113.17,67.85,113.22,67.73,113.22z M65.73,110.98c-0.14,0-0.27-0.06-0.37-0.17l-0.67-0.74c-0.19-0.21-0.17-0.52,0.04-0.71
				c0.2-0.18,0.52-0.17,0.71,0.04l0.67,0.74c0.18,0.21,0.17,0.52-0.04,0.71C65.96,110.94,65.85,110.98,65.73,110.98z M65.58,108.9
				c-0.15,0-0.29-0.06-0.39-0.18c-0.17-0.21-0.14-0.53,0.07-0.7l0.78-0.63c0.21-0.17,0.53-0.14,0.7,0.07
				c0.17,0.21,0.14,0.53-0.07,0.7l-0.78,0.63C65.81,108.86,65.69,108.9,65.58,108.9z M67.92,107.01c-0.15,0-0.29-0.06-0.39-0.19
				c-0.17-0.22-0.14-0.53,0.08-0.7l0.78-0.62c0.22-0.17,0.53-0.14,0.7,0.08c0.17,0.22,0.13,0.53-0.08,0.7l-0.78,0.62
				C68.14,106.98,68.03,107.01,67.92,107.01z M70.27,105.15c-0.15,0-0.3-0.07-0.39-0.19c-0.17-0.22-0.13-0.53,0.09-0.7l0.79-0.62
				c0.22-0.17,0.53-0.13,0.7,0.09c0.17,0.22,0.13,0.53-0.09,0.7l-0.79,0.62C70.49,105.12,70.38,105.15,70.27,105.15z M72.64,103.31
				c-0.15,0-0.3-0.07-0.4-0.2c-0.17-0.22-0.13-0.53,0.09-0.7l0.8-0.61c0.22-0.17,0.53-0.13,0.7,0.09c0.17,0.22,0.13,0.53-0.09,0.7
				l-0.79,0.61C72.86,103.28,72.75,103.31,72.64,103.31z M75.03,101.5c-0.15,0-0.3-0.07-0.4-0.2c-0.17-0.22-0.12-0.53,0.1-0.7
				l0.8-0.6c0.22-0.17,0.54-0.12,0.7,0.1c0.16,0.22,0.12,0.54-0.1,0.7l-0.8,0.6C75.24,101.47,75.14,101.5,75.03,101.5z M77.45,99.72
				c-0.15,0-0.31-0.07-0.4-0.21c-0.16-0.22-0.11-0.54,0.11-0.7l0.81-0.59c0.22-0.16,0.54-0.11,0.7,0.11
				c0.16,0.22,0.11,0.54-0.11,0.7l-0.81,0.59C77.65,99.69,77.55,99.72,77.45,99.72z M79.88,97.96c-0.16,0-0.31-0.07-0.41-0.21
				c-0.16-0.22-0.11-0.54,0.12-0.7l0.82-0.58c0.23-0.16,0.54-0.11,0.7,0.12c0.16,0.23,0.11,0.54-0.12,0.7l-0.81,0.58
				C80.08,97.93,79.98,97.96,79.88,97.96z"/>
			<path class="st1" d="M105.16,112.31c-0.06,0-0.13-0.01-0.19-0.04c-0.32-0.13-0.64-0.29-0.96-0.47c-0.24-0.14-0.32-0.44-0.18-0.68
				c0.14-0.24,0.44-0.32,0.68-0.18c0.27,0.16,0.55,0.29,0.84,0.41c0.25,0.11,0.38,0.4,0.27,0.65
				C105.54,112.19,105.36,112.31,105.16,112.31z M102.56,110.72c-0.16,0-0.31-0.07-0.41-0.21c-0.05-0.07-0.08-0.15-0.09-0.24
				c-0.11-0.11-0.21-0.21-0.31-0.33c-0.18-0.21-0.17-0.52,0.04-0.71c0.2-0.19,0.52-0.17,0.71,0.04c0.16,0.17,0.32,0.34,0.49,0.5
				c0,0,0,0,0.01,0.01c0,0,0.01,0.01,0.01,0.01c0.19,0.19,0.19,0.51,0.01,0.7c-0.05,0.05-0.11,0.09-0.17,0.12
				C102.76,110.69,102.66,110.72,102.56,110.72z M100.99,108.48c-0.18,0-0.36-0.1-0.45-0.27c-0.17-0.33-0.3-0.66-0.41-1
				c-0.08-0.26,0.06-0.54,0.32-0.63c0.26-0.08,0.54,0.06,0.63,0.32c0.09,0.29,0.21,0.57,0.35,0.85c0.12,0.25,0.03,0.55-0.22,0.67
				C101.14,108.46,101.07,108.48,100.99,108.48z M100.36,105.59c-0.01,0-0.02,0-0.03,0c-0.28-0.02-0.48-0.26-0.46-0.53
				c0.03-0.37,0.09-0.73,0.19-1.08c0.07-0.27,0.35-0.42,0.62-0.35c0.27,0.07,0.42,0.35,0.35,0.62c-0.08,0.29-0.13,0.58-0.15,0.88
				C100.84,105.38,100.62,105.59,100.36,105.59z M101.41,102.82c-0.1,0-0.21-0.03-0.3-0.1c-0.22-0.16-0.27-0.48-0.11-0.7
				c0.2-0.28,0.44-0.55,0.7-0.81c0.19-0.2,0.51-0.2,0.71,0c0.2,0.19,0.2,0.51,0,0.71c-0.22,0.23-0.43,0.46-0.6,0.7
				C101.71,102.75,101.56,102.82,101.41,102.82z M103.5,100.67c-0.13,0-0.26-0.05-0.36-0.16c-0.19-0.2-0.18-0.52,0.02-0.71
				l0.73-0.69c0.2-0.19,0.52-0.18,0.71,0.02c0.19,0.2,0.18,0.52-0.02,0.71l-0.73,0.69C103.75,100.63,103.63,100.67,103.5,100.67z
				 M105.69,98.62c-0.13,0-0.27-0.05-0.37-0.16c-0.19-0.2-0.18-0.52,0.03-0.71l0.74-0.68c0.2-0.18,0.52-0.17,0.71,0.03
				c0.19,0.2,0.17,0.52-0.03,0.71l-0.73,0.68C105.93,98.58,105.81,98.62,105.69,98.62z M107.9,96.59c-0.14,0-0.27-0.06-0.37-0.16
				c-0.19-0.2-0.17-0.52,0.03-0.71l0.74-0.67c0.21-0.19,0.52-0.17,0.71,0.04c0.18,0.21,0.17,0.52-0.04,0.71l-0.74,0.67
				C108.14,96.55,108.02,96.59,107.9,96.59z M110.14,94.59c-0.14,0-0.28-0.06-0.37-0.17c-0.18-0.21-0.16-0.52,0.04-0.71l0.75-0.66
				c0.21-0.18,0.52-0.16,0.71,0.05c0.18,0.21,0.16,0.52-0.05,0.71l-0.75,0.66C110.37,94.55,110.26,94.59,110.14,94.59z M112.4,92.62
				c-0.14,0-0.28-0.06-0.38-0.17c-0.18-0.21-0.16-0.53,0.05-0.71l0.76-0.65c0.21-0.18,0.52-0.16,0.71,0.05
				c0.18,0.21,0.16,0.52-0.05,0.71l-0.76,0.65C112.63,92.58,112.51,92.62,112.4,92.62z M114.68,90.67c-0.14,0-0.28-0.06-0.38-0.18
				c-0.18-0.21-0.15-0.53,0.06-0.71l0.77-0.64c0.21-0.18,0.53-0.15,0.7,0.06c0.18,0.21,0.15,0.53-0.06,0.71L115,90.55
				C114.91,90.63,114.79,90.67,114.68,90.67z M128.05,90.62c-0.2,0-0.39-0.12-0.46-0.32c-0.11-0.28-0.25-0.54-0.42-0.77
				c-0.16-0.23-0.1-0.54,0.12-0.7c0.23-0.16,0.54-0.1,0.7,0.12c0.21,0.3,0.39,0.63,0.53,0.98c0.1,0.26-0.02,0.55-0.28,0.65
				C128.17,90.61,128.11,90.62,128.05,90.62z M117.02,88.71c-0.14,0-0.29-0.05-0.38-0.17c-0.17-0.21-0.18-0.5,0.03-0.67
				c0,0,0.08-0.06,0.08-0.06l0.18-0.14c0.19-0.16,0.38-0.3,0.57-0.43c0.23-0.16,0.54-0.1,0.7,0.13c0.16,0.23,0.1,0.54-0.13,0.69
				c-0.17,0.12-0.34,0.24-0.5,0.38l-0.18,0.15C117.28,88.66,117.15,88.71,117.02,88.71z M126.19,88.47c-0.09,0-0.19-0.03-0.28-0.08
				c-0.27-0.18-0.54-0.34-0.82-0.49c-0.24-0.13-0.33-0.44-0.2-0.68c0.13-0.24,0.43-0.33,0.68-0.2c0.3,0.16,0.6,0.34,0.89,0.54
				c0.23,0.15,0.29,0.46,0.14,0.69C126.51,88.39,126.35,88.47,126.19,88.47z M119.56,87.24c-0.21,0-0.4-0.13-0.47-0.34
				c-0.09-0.26,0.05-0.54,0.31-0.63c0.34-0.12,0.69-0.2,1.04-0.27c0.28-0.05,0.53,0.14,0.58,0.41c0.05,0.27-0.14,0.53-0.41,0.58
				c-0.3,0.05-0.6,0.13-0.89,0.23C119.66,87.23,119.61,87.24,119.56,87.24z M123.49,87.19c-0.05,0-0.09-0.01-0.14-0.02
				c-0.3-0.09-0.61-0.15-0.91-0.2c-0.27-0.04-0.46-0.29-0.42-0.57c0.04-0.27,0.29-0.46,0.57-0.42c0.35,0.05,0.7,0.13,1.04,0.23
				c0.27,0.08,0.42,0.35,0.34,0.62C123.91,87.04,123.71,87.19,123.49,87.19z"/>
			<path class="st1" d="M90.79,99.37c-0.02,0-0.03,0-0.05,0c-0.27-0.03-0.48-0.27-0.45-0.54c0.02-0.21,0.03-0.42,0.03-0.63
				c0-0.1,0-0.2-0.01-0.3c-0.01-0.28,0.2-0.51,0.48-0.52c0.28-0.05,0.51,0.2,0.52,0.48c0.01,0.12,0.01,0.23,0.01,0.35
				c0,0.24-0.01,0.48-0.03,0.72C91.27,99.17,91.05,99.37,90.79,99.37z M90.47,96.41c-0.21,0-0.41-0.14-0.48-0.35
				c-0.09-0.29-0.2-0.59-0.33-0.89c-0.11-0.25,0.01-0.55,0.26-0.66c0.25-0.11,0.55,0.01,0.66,0.26c0.14,0.33,0.26,0.66,0.36,0.99
				c0.08,0.26-0.07,0.54-0.33,0.62C90.57,96.4,90.52,96.41,90.47,96.41z"/>
			<path class="st1" d="M71.08,102.61c-0.16,0-0.31-0.07-0.41-0.21l-0.59-0.81c-0.16-0.22-0.11-0.54,0.11-0.7
				c0.22-0.16,0.54-0.11,0.7,0.11l0.59,0.81c0.16,0.22,0.11,0.54-0.11,0.7C71.28,102.58,71.18,102.61,71.08,102.61z M69.41,100.12
				c-0.18,0-0.35-0.1-0.44-0.27c-0.18-0.34-0.32-0.66-0.43-0.99c-0.09-0.26,0.05-0.54,0.31-0.63c0.26-0.09,0.55,0.05,0.63,0.31
				c0.09,0.27,0.21,0.55,0.37,0.84c0.13,0.24,0.03,0.55-0.21,0.67C69.56,100.11,69.48,100.12,69.41,100.12z M68.63,97.25
				c-0.25,0-0.47-0.19-0.5-0.45c-0.04-0.35-0.06-0.69-0.07-1.03c-0.01-0.28,0.21-0.51,0.48-0.52c0.27-0.02,0.51,0.21,0.52,0.48
				c0.01,0.32,0.03,0.64,0.07,0.96c0.03,0.27-0.17,0.52-0.44,0.55C68.66,97.25,68.65,97.25,68.63,97.25z M68.66,94.26
				c-0.02,0-0.05,0-0.07,0c-0.27-0.04-0.46-0.29-0.42-0.57c0.05-0.35,0.12-0.7,0.2-1.03c0.07-0.27,0.34-0.43,0.61-0.36
				c0.27,0.07,0.43,0.34,0.36,0.61c-0.08,0.3-0.14,0.61-0.18,0.93C69.12,94.08,68.91,94.26,68.66,94.26z M69.56,91.41
				c-0.08,0-0.16-0.02-0.23-0.06c-0.25-0.13-0.34-0.43-0.21-0.67c0.17-0.32,0.35-0.62,0.55-0.91c0.16-0.23,0.47-0.28,0.7-0.12
				c0.23,0.16,0.28,0.47,0.12,0.7c-0.18,0.25-0.34,0.52-0.48,0.8C69.91,91.31,69.74,91.41,69.56,91.41z M71.42,89.09
				c-0.14,0-0.29-0.06-0.39-0.18c-0.18-0.21-0.15-0.53,0.07-0.7c0.27-0.22,0.56-0.43,0.86-0.62c0.23-0.15,0.54-0.08,0.69,0.15
				c0.15,0.23,0.08,0.54-0.15,0.69c-0.27,0.17-0.52,0.35-0.76,0.55C71.65,89.05,71.54,89.09,71.42,89.09z M83.73,88.48
				c-0.08,0-0.16-0.02-0.23-0.06c-0.28-0.15-0.57-0.29-0.87-0.41c-0.25-0.11-0.37-0.4-0.26-0.66c0.11-0.25,0.4-0.37,0.66-0.26
				c0.32,0.14,0.63,0.28,0.94,0.44c0.24,0.13,0.34,0.43,0.21,0.67C84.08,88.38,83.91,88.48,83.73,88.48z M74.03,87.64
				c-0.21,0-0.4-0.13-0.47-0.34c-0.09-0.26,0.05-0.55,0.31-0.64c0.32-0.11,0.66-0.21,1.01-0.29c0.27-0.06,0.54,0.1,0.6,0.37
				c0.06,0.27-0.1,0.54-0.37,0.6c-0.32,0.08-0.62,0.17-0.91,0.27C74.14,87.63,74.09,87.64,74.03,87.64z M80.93,87.41
				c-0.04,0-0.08,0-0.12-0.01c-0.31-0.08-0.62-0.15-0.94-0.2c-0.27-0.05-0.46-0.31-0.41-0.58c0.05-0.27,0.31-0.45,0.58-0.41
				c0.34,0.06,0.68,0.13,1.02,0.21c0.27,0.07,0.43,0.34,0.36,0.61C81.36,87.26,81.16,87.41,80.93,87.41z M76.96,87.06
				c-0.26,0-0.48-0.2-0.5-0.46c-0.02-0.28,0.19-0.52,0.46-0.54c0.32-0.02,0.63-0.03,0.94-0.03c0.28,0,0.55,0.22,0.55,0.5
				s-0.18,0.5-0.45,0.5c-0.38,0-0.67,0.01-0.96,0.03C76.99,87.06,76.98,87.06,76.96,87.06z"/>
			<path class="st1" d="M106.19,97.36C106.18,97.36,106.18,97.36,106.19,97.36c-0.35,0-0.69-0.01-1.03-0.03
				c-0.28-0.01-0.49-0.25-0.47-0.53c0.02-0.28,0.25-0.5,0.53-0.47c0.32,0.02,0.65,0.03,0.98,0.03c0.28,0,0.5,0.23,0.49,0.51
				C106.68,97.14,106.46,97.36,106.19,97.36z M103.2,97.14c-0.02,0-0.05,0-0.07,0c-0.34-0.05-0.68-0.1-1.01-0.17
				c-0.27-0.05-0.45-0.31-0.4-0.58c0.05-0.27,0.32-0.45,0.58-0.4c0.32,0.06,0.64,0.11,0.96,0.16c0.27,0.04,0.46,0.29,0.43,0.56
				C103.66,96.96,103.44,97.14,103.2,97.14z"/>
			<path class="st1" d="M119.44,87.23c-0.04,0-0.08,0-0.11-0.01c-0.27-0.06-0.44-0.33-0.37-0.6c0.04-0.16,0.07-0.31,0.1-0.47
				c0.05-0.27,0.31-0.45,0.59-0.39c0.27,0.05,0.45,0.32,0.39,0.59c-0.03,0.17-0.07,0.33-0.11,0.5
				C119.88,87.07,119.67,87.23,119.44,87.23z M119.81,84.76c-0.01,0-0.02,0-0.03,0c-0.28-0.02-0.48-0.26-0.47-0.53
				c0.02-0.28,0.03-0.55,0.03-0.83l0-0.13c0-0.28,0.22-0.5,0.49-0.51c0.27-0.03,0.5,0.22,0.51,0.49l0,0.14c0,0.3-0.01,0.6-0.03,0.9
				C120.3,84.56,120.08,84.76,119.81,84.76z"/>
			<path class="st1" d="M89.21,72.9c-0.13,0-0.27-0.05-0.37-0.16c-0.19-0.2-0.17-0.52,0.03-0.71c0.25-0.23,0.5-0.46,0.76-0.68
				c0.21-0.18,0.52-0.16,0.71,0.05c0.18,0.21,0.16,0.52-0.05,0.71c-0.24,0.21-0.49,0.43-0.73,0.66
				C89.46,72.85,89.33,72.9,89.21,72.9z M91.53,71c-0.16,0-0.31-0.07-0.41-0.21c-0.16-0.23-0.11-0.54,0.12-0.7
				c0.28-0.2,0.57-0.39,0.86-0.57c0.23-0.15,0.54-0.08,0.69,0.16c0.15,0.23,0.08,0.54-0.16,0.69c-0.27,0.17-0.54,0.35-0.81,0.54
				C91.73,70.97,91.63,71,91.53,71z M109.67,70.36c-0.07,0-0.14-0.01-0.2-0.04c-0.3-0.13-0.6-0.26-0.9-0.38
				c-0.26-0.1-0.38-0.39-0.28-0.65c0.1-0.26,0.39-0.38,0.65-0.28c0.31,0.13,0.63,0.26,0.94,0.4c0.25,0.11,0.37,0.41,0.25,0.66
				C110.04,70.25,109.86,70.36,109.67,70.36z M94.12,69.5c-0.19,0-0.38-0.11-0.46-0.3c-0.11-0.25,0-0.55,0.26-0.66
				c0.31-0.14,0.63-0.27,0.96-0.38c0.26-0.09,0.55,0.04,0.64,0.3c0.09,0.26-0.04,0.55-0.3,0.64c-0.3,0.11-0.6,0.23-0.89,0.35
				C94.26,69.49,94.19,69.5,94.12,69.5z M106.86,69.3c-0.05,0-0.1-0.01-0.15-0.02c-0.31-0.1-0.62-0.19-0.94-0.27
				c-0.27-0.07-0.43-0.34-0.36-0.61c0.07-0.27,0.35-0.43,0.61-0.36c0.33,0.08,0.66,0.18,0.98,0.28c0.26,0.08,0.41,0.36,0.33,0.62
				C107.27,69.17,107.08,69.3,106.86,69.3z M96.98,68.61c-0.23,0-0.44-0.17-0.49-0.4c-0.05-0.27,0.12-0.53,0.4-0.59
				c0.33-0.06,0.67-0.12,1.02-0.16c0.27-0.04,0.52,0.16,0.56,0.43c0.03,0.27-0.16,0.52-0.43,0.56c-0.33,0.04-0.64,0.09-0.95,0.15
				C97.04,68.61,97.01,68.61,96.98,68.61z M103.95,68.61c-0.03,0-0.05,0-0.08-0.01c-0.32-0.05-0.64-0.1-0.97-0.14
				c-0.27-0.03-0.47-0.28-0.44-0.56c0.03-0.27,0.28-0.48,0.56-0.44c0.34,0.04,0.68,0.09,1.01,0.15c0.27,0.04,0.46,0.3,0.41,0.58
				C104.4,68.44,104.19,68.61,103.95,68.61z M100.96,68.32c0,0-0.01,0-0.01,0c-0.18,0-0.36-0.01-0.55-0.01l-0.43,0
				c-0.3,0-0.5-0.21-0.51-0.49c-0.01-0.28,0.21-0.5,0.49-0.51l0.45,0c0.19,0,0.38,0,0.57,0.01c0.28,0.01,0.49,0.24,0.49,0.51
				C101.45,68.11,101.23,68.32,100.96,68.32z"/>
			<path class="st1" d="M132.41,106.31c-0.21,0-0.4-0.13-0.47-0.34c-0.09-0.26,0.05-0.55,0.31-0.64l0.34-0.12
				c0.2-0.07,0.41-0.14,0.61-0.21c0.27-0.08,0.54,0.06,0.63,0.32c0.08,0.26-0.06,0.54-0.32,0.63c-0.2,0.06-0.39,0.13-0.59,0.2
				l-0.35,0.12C132.52,106.3,132.47,106.31,132.41,106.31z M130.68,106.12c-0.13,0-0.26-0.05-0.36-0.15
				c-0.19-0.2-0.38-0.41-0.57-0.62l-0.08-0.09c-0.19-0.21-0.17-0.52,0.03-0.71c0.2-0.19,0.52-0.17,0.71,0.03l0.08,0.09
				c0.18,0.2,0.37,0.4,0.55,0.6c0.19,0.2,0.18,0.52-0.02,0.71C130.92,106.08,130.8,106.12,130.68,106.12z M138.53,105.89l-0.23,0
				c-0.28-0.01-0.49-0.24-0.49-0.51c0.01-0.26,0.22-0.47,0.48-0.49l0.08-0.27c0.08-0.26,0.36-0.42,0.63-0.33
				c0.26,0.08,0.41,0.36,0.33,0.62l-0.2,0.63c-0.06,0.2-0.25,0.35-0.47,0.35L138.53,105.89z M136.32,105.71c-0.02,0-0.03,0-0.05,0
				c-0.32-0.03-0.64-0.05-0.95-0.05c-0.28,0-0.5-0.23-0.5-0.5c0-0.28,0.22-0.5,0.5-0.5c0,0,0,0,0,0c0.34,0,0.69,0.03,1.04,0.06
				c0.27,0.03,0.48,0.27,0.45,0.54C136.79,105.52,136.58,105.71,136.32,105.71z M139.44,103.35c-0.05,0-0.1-0.01-0.15-0.02
				c-0.26-0.08-0.41-0.36-0.33-0.62l0.23-0.75c0.02-0.06,0.05-0.11,0.08-0.16l0.14-0.18c0.17-0.22,0.49-0.25,0.7-0.08
				c0.22,0.17,0.25,0.49,0.08,0.7l-0.08,0.1l-0.2,0.66C139.85,103.21,139.65,103.35,139.44,103.35z M141.08,100.87
				c-0.11,0-0.22-0.04-0.31-0.11c-0.21-0.18-0.25-0.48-0.07-0.69l0.64-0.76c0.18-0.21,0.49-0.24,0.7-0.06
				c0.21,0.18,0.24,0.49,0.06,0.7l-0.62,0.73C141.39,100.81,141.24,100.87,141.08,100.87z M140.7,98.54c-0.15,0-0.29-0.06-0.39-0.19
				c-0.22-0.27-0.43-0.54-0.63-0.81c-0.16-0.22-0.11-0.54,0.11-0.7c0.22-0.16,0.54-0.11,0.7,0.12c0.19,0.26,0.39,0.51,0.59,0.77
				c0.17,0.22,0.14,0.53-0.08,0.7C140.92,98.5,140.81,98.54,140.7,98.54z M139.19,95.97c-0.21,0-0.4-0.13-0.47-0.34
				c-0.09-0.26-0.17-0.53-0.25-0.79l-0.05-0.18c-0.08-0.26,0.07-0.54,0.33-0.62s0.54,0.07,0.62,0.33l0.06,0.18
				c0.08,0.25,0.15,0.51,0.24,0.76c0.09,0.26-0.05,0.55-0.31,0.63C139.3,95.96,139.24,95.97,139.19,95.97z M137.82,93.6
				c-0.03,0-0.05,0-0.08-0.01c-0.32-0.05-0.64-0.08-0.97-0.12c-0.27-0.03-0.48-0.27-0.45-0.55c0.03-0.27,0.28-0.48,0.55-0.45
				c0.34,0.03,0.68,0.07,1.02,0.12c0.27,0.04,0.46,0.3,0.42,0.57C138.27,93.42,138.06,93.6,137.82,93.6z M134.84,93.21
				c-0.03,0-0.07,0-0.1-0.01c-0.08-0.02-0.16-0.04-0.24-0.06c-0.27-0.07-0.53-0.15-0.79-0.25c-0.26-0.09-0.39-0.38-0.3-0.64
				c0.1-0.26,0.38-0.39,0.64-0.3c0.23,0.08,0.46,0.16,0.69,0.22c0.06,0.02,0.13,0.03,0.19,0.04c0.27,0.05,0.45,0.32,0.39,0.59
				C135.29,93.05,135.08,93.21,134.84,93.21z M132.05,92.15c-0.06,0-0.13-0.01-0.19-0.04c-0.29-0.12-0.59-0.24-0.89-0.34
				c-0.26-0.08-0.41-0.36-0.33-0.63c0.08-0.26,0.36-0.41,0.63-0.33c0.33,0.11,0.66,0.23,0.98,0.37c0.25,0.11,0.37,0.4,0.27,0.66
				C132.43,92.03,132.24,92.15,132.05,92.15z"/>
			<path class="st1" d="M57.9,97.09c-0.24,0-0.45-0.17-0.49-0.41c-0.05-0.27,0.13-0.53,0.4-0.58l0.99-0.18
				c0.27-0.04,0.53,0.13,0.58,0.4c0.05,0.27-0.13,0.53-0.4,0.58l-0.98,0.18C57.96,97.08,57.93,97.09,57.9,97.09z M60.86,96.56
				c-0.24,0-0.45-0.17-0.49-0.41c-0.05-0.27,0.13-0.53,0.4-0.58l0.98-0.18c0.28-0.04,0.53,0.13,0.58,0.4
				c0.05,0.27-0.13,0.53-0.4,0.58l-0.99,0.18C60.92,96.56,60.89,96.56,60.86,96.56z M56.52,96.5c-0.22,0-0.42-0.14-0.48-0.36
				l-0.28-0.96c-0.08-0.27,0.07-0.54,0.34-0.62c0.27-0.08,0.54,0.07,0.62,0.34L57,95.86c0.08,0.26-0.07,0.54-0.34,0.62
				C56.61,96.49,56.56,96.5,56.52,96.5z M63.81,96.02c-0.24,0-0.45-0.17-0.49-0.41c-0.05-0.27,0.13-0.53,0.4-0.58l0.99-0.18
				c0.27-0.04,0.53,0.13,0.58,0.4s-0.13,0.53-0.4,0.58l-0.98,0.18C63.87,96.02,63.84,96.02,63.81,96.02z M66.76,95.5
				c-0.24,0-0.45-0.17-0.49-0.41c-0.05-0.27,0.13-0.53,0.41-0.58l0.98-0.17c0.27-0.04,0.53,0.13,0.58,0.4
				c0.05,0.27-0.13,0.53-0.4,0.58l-0.99,0.17C66.82,95.49,66.79,95.5,66.76,95.5z M55.67,93.62c-0.22,0-0.42-0.14-0.48-0.36
				l-0.28-0.96c-0.08-0.27,0.07-0.54,0.34-0.62c0.27-0.08,0.54,0.07,0.62,0.34l0.28,0.96c0.08,0.26-0.08,0.54-0.34,0.62
				C55.76,93.62,55.71,93.62,55.67,93.62z M54.83,90.74c-0.22,0-0.42-0.14-0.48-0.36l-0.28-0.96c-0.08-0.27,0.07-0.54,0.34-0.62
				c0.27-0.08,0.54,0.07,0.62,0.34l0.28,0.96c0.08,0.26-0.08,0.54-0.34,0.62C54.92,90.74,54.88,90.74,54.83,90.74z M54,87.86
				c-0.22,0-0.42-0.14-0.48-0.36l-0.28-0.96c-0.08-0.26,0.07-0.54,0.34-0.62c0.27-0.07,0.54,0.07,0.62,0.34l0.28,0.96
				c0.08,0.26-0.08,0.54-0.34,0.62C54.09,87.85,54.04,87.86,54,87.86z M53.15,84.98c-0.22,0-0.42-0.14-0.48-0.36l-0.28-0.96
				c-0.08-0.26,0.07-0.54,0.34-0.62c0.27-0.08,0.54,0.07,0.62,0.34l0.28,0.96c0.08,0.26-0.07,0.54-0.34,0.62
				C53.25,84.97,53.2,84.98,53.15,84.98z M52.29,82.11c-0.21,0-0.41-0.14-0.48-0.36l-0.29-0.96c-0.08-0.26,0.07-0.54,0.33-0.62
				c0.26-0.08,0.54,0.07,0.62,0.33l0.29,0.96c0.08,0.26-0.07,0.54-0.33,0.62C52.39,82.1,52.34,82.11,52.29,82.11z M51.41,79.24
				c-0.21,0-0.41-0.14-0.48-0.35l-0.3-0.95c-0.08-0.26,0.06-0.54,0.32-0.63c0.26-0.08,0.54,0.06,0.63,0.32l0.3,0.96
				c0.08,0.26-0.06,0.54-0.33,0.63C51.51,79.23,51.46,79.24,51.41,79.24z M90.41,78.4c-0.2,0-0.39-0.12-0.47-0.32l-0.35-0.94
				c-0.1-0.26,0.03-0.55,0.29-0.64c0.26-0.1,0.55,0.04,0.64,0.29l0.35,0.93c0.1,0.26-0.03,0.55-0.29,0.64
				C90.52,78.39,90.46,78.4,90.41,78.4z M50.5,76.38c-0.21,0-0.41-0.13-0.48-0.34l-0.31-0.95c-0.09-0.26,0.06-0.55,0.32-0.63
				c0.26-0.09,0.54,0.06,0.63,0.32l0.31,0.95c0.09,0.26-0.06,0.54-0.32,0.63C50.6,76.37,50.55,76.38,50.5,76.38z M89.36,75.59
				c-0.2,0-0.4-0.13-0.47-0.33l-0.34-0.94c-0.09-0.26,0.04-0.55,0.3-0.64c0.26-0.09,0.55,0.04,0.64,0.3l0.34,0.94
				c0.09,0.26-0.04,0.55-0.3,0.64C89.48,75.58,89.42,75.59,89.36,75.59z M51.65,74.71c-0.23,0-0.44-0.16-0.49-0.39
				c-0.06-0.27,0.11-0.54,0.38-0.6l0.98-0.22c0.27-0.06,0.54,0.11,0.59,0.38c0.06,0.27-0.11,0.54-0.38,0.59l-0.97,0.21
				C51.72,74.71,51.69,74.71,51.65,74.71z M54.58,74.08c-0.23,0-0.44-0.16-0.49-0.4c-0.06-0.27,0.12-0.54,0.39-0.59l0.98-0.2
				c0.27-0.06,0.53,0.12,0.59,0.39c0.05,0.27-0.12,0.53-0.39,0.59l-0.98,0.2C54.65,74.08,54.62,74.08,54.58,74.08z M57.52,73.49
				c-0.24,0-0.44-0.17-0.49-0.41c-0.05-0.27,0.13-0.53,0.4-0.58l0.98-0.19c0.27-0.05,0.53,0.13,0.58,0.4
				c0.05,0.27-0.13,0.53-0.4,0.58l-0.98,0.19C57.59,73.49,57.56,73.49,57.52,73.49z M60.47,72.95c-0.24,0-0.45-0.17-0.49-0.41
				c-0.05-0.27,0.13-0.53,0.4-0.58l0.99-0.17c0.28-0.06,0.53,0.13,0.58,0.41c0.05,0.27-0.13,0.53-0.41,0.58l-0.98,0.17
				C60.53,72.94,60.5,72.95,60.47,72.95z M88.35,72.77c-0.21,0-0.4-0.13-0.47-0.33l-0.33-0.95c-0.09-0.26,0.05-0.55,0.31-0.63
				c0.26-0.09,0.54,0.05,0.63,0.31l0.33,0.94c0.09,0.26-0.05,0.55-0.31,0.64C88.46,72.76,88.4,72.77,88.35,72.77z M63.43,72.43
				c-0.24,0-0.45-0.17-0.49-0.42c-0.05-0.27,0.14-0.53,0.41-0.58l0.99-0.16c0.28-0.05,0.53,0.14,0.57,0.41
				c0.04,0.27-0.14,0.53-0.41,0.57l-0.98,0.16C63.48,72.43,63.46,72.43,63.43,72.43z M66.39,71.95c-0.24,0-0.45-0.17-0.49-0.42
				c-0.04-0.27,0.14-0.53,0.41-0.57l0.99-0.16c0.27-0.04,0.53,0.14,0.57,0.42s-0.14,0.53-0.41,0.57l-0.99,0.16
				C66.44,71.95,66.42,71.95,66.39,71.95z M69.35,71.48c-0.24,0-0.46-0.18-0.49-0.42c-0.04-0.27,0.15-0.53,0.42-0.57l0.92-0.14
				c0.27-0.04,0.56,0.14,0.6,0.41c0.04,0.27-0.11,0.52-0.38,0.56l-0.99,0.15C69.4,71.48,69.38,71.48,69.35,71.48z M72.32,71.04
				c-0.24,0-0.46-0.18-0.49-0.43c-0.04-0.27,0.15-0.53,0.42-0.57l0.99-0.15c0.27-0.04,0.53,0.15,0.57,0.42s-0.15,0.53-0.42,0.57
				l-0.99,0.15C72.37,71.03,72.34,71.04,72.32,71.04z M75.29,70.6c-0.24,0-0.46-0.18-0.49-0.43c-0.04-0.27,0.15-0.53,0.42-0.57
				l0.99-0.14c0.27-0.04,0.53,0.15,0.57,0.42c0.04,0.27-0.15,0.53-0.42,0.57l-0.99,0.15C75.34,70.6,75.31,70.6,75.29,70.6z
				 M78.26,70.17c-0.24,0-0.46-0.18-0.49-0.43c-0.04-0.27,0.15-0.53,0.42-0.57l0.99-0.14c0.27-0.04,0.53,0.15,0.57,0.42
				c0.04,0.27-0.15,0.53-0.42,0.57l-0.99,0.14C78.3,70.17,78.28,70.17,78.26,70.17z M87.39,69.92c-0.21,0-0.41-0.13-0.48-0.34
				l-0.31-0.96c-0.08-0.26,0.06-0.54,0.32-0.63c0.26-0.08,0.54,0.06,0.63,0.32l0.31,0.95c0.09,0.26-0.06,0.54-0.32,0.63
				C87.49,69.92,87.44,69.92,87.39,69.92z M81.23,69.73c-0.24,0-0.46-0.18-0.49-0.43c-0.04-0.27,0.15-0.53,0.42-0.57l0.99-0.15
				c0.27-0.04,0.53,0.15,0.57,0.42c0.04,0.27-0.15,0.53-0.42,0.57l-0.99,0.14C81.27,69.73,81.25,69.73,81.23,69.73z M84.19,69.29
				c-0.24,0-0.46-0.18-0.49-0.42c-0.04-0.27,0.15-0.53,0.42-0.57l0.99-0.15c0.27-0.04,0.53,0.15,0.57,0.42
				c0.04,0.27-0.15,0.53-0.42,0.57l-0.99,0.15C84.24,69.29,84.22,69.29,84.19,69.29z"/>
		</g>
	</g>
</g>
</svg>
